{
    "name": "Azulene is Blue",
    "collection": "TileSwap",
    "id": 24,
    "rows": 5,
    "columns": 5,
    "difficulty": 2,
    "isSpecialTutorial": false,
    "specialTutorialIndex": 0,
    "tutorial": [],
    "objectives": [
        {
            "solution": [
                {
                    "row": 1,
                    "column": 3,
                    "text": ""
                },
                {
                    "row": 3,
                    "column": 3,
                    "text": ""
                },
                {
                    "row": 3,
                    "column": 1,
                    "text": ""
                },
                {
                    "row": 1,
                    "column": 1,
                    "text": ""
                },
                {
                    "row": 2,
                    "column": 1,
                    "text": ""
                },
                {
                    "row": 3,
                    "column": 2,
                    "text": ""
                },
                {
                    "row": 2,
                    "column": 3,
                    "text": ""
                },
                {
                    "row": 2,
                    "column": 2,
                    "text": ""
                },
                {
                    "row": 1,
                    "column": 2,
                    "text": ""
                }
            ]
        },
        {
            "solution": [
                {
                    "row": 1,
                    "column": 3,
                    "text": ""
                },
                {
                    "row": 1,
                    "column": 1,
                    "text": ""
                },
                {
                    "row": 1,
                    "column": 2,
                    "text": ""
                },
                {
                    "row": 3,
                    "column": 3,
                    "text": ""
                },
                {
                    "row": 2,
                    "column": 3,
                    "text": ""
                },
                {
                    "row": 2,
                    "column": 2,
                    "text": ""
                },
                {
                    "row": 3,
                    "column": 1,
                    "text": ""
                },
                {
                    "row": 4,
                    "column": 1,
                    "text": ""
                },
                {
                    "row": 2,
                    "column": 1,
                    "text": ""
                },
                {
                    "row": 3,
                    "column": 1,
                    "text": ""
                }
            ]
        },
        {
            "solution": [
                {
                    "row": 3,
                    "column": 3,
                    "text": ""
                },
                {
                    "row": 2,
                    "column": 3,
                    "text": ""
                },
                {
                    "row": 1,
                    "column": 1,
                    "text": ""
                },
                {
                    "row": 2,
                    "column": 1,
                    "text": ""
                },
                {
                    "row": 2,
                    "column": 2,
                    "text": ""
                },
                {
                    "row": 1,
                    "column": 3,
                    "text": ""
                },
                {
                    "row": 3,
                    "column": 2,
                    "text": ""
                },
                {
                    "row": 1,
                    "column": 2,
                    "text": ""
                },
                {
                    "row": 2,
                    "column": 2,
                    "text": ""
                },
                {
                    "row": 3,
                    "column": 1,
                    "text": ""
                },
                {
                    "row": 3,
                    "column": 2,
                    "text": ""
                }
            ]
        }
    ],
    "piece": [
        "0",
        "CSP:GP:BP",
        "CSP:BP:GP",
        "CSP:BP:GP",
        "0",
        "CSP:GP:BP",
        "0",
        "0",
        "0",
        "CSP:BP:GP",
        "CSP:BP:GP",
        "0",
        "0",
        "0",
        "CSP:BP:GP",
        "CSP:BP:GP",
        "0",
        "0",
        "0",
        "CSP:GP:BP",
        "0",
        "CSP:BP:GP",
        "CSP:GP:BP",
        "CSP:GP:BP",
        "0"
    ],
    "tile": [
        "0",
        "0",
        "0",
        "0",
        "0",
        "0",
        "0",
        "0",
        "0",
        "0",
        "0",
        "0",
        "0",
        "0",
        "0",
        "0",
        "0",
        "0",
        "0",
        "0",
        "0",
        "0",
        "0",
        "0",
        "0"
    ],
    "item": [
        "0",
        "0",
        "0",
        "0",
        "0",
        "0",
        "0",
        "0",
        "0",
        "0",
        "0",
        "0",
        "0",
        "0",
        "0",
        "0",
        "0",
        "0",
        "0",
        "0",
        "0",
        "0",
        "0",
        "0",
        "0"
    ],
    "path": ""
}