{
    "name": "The Red Wave",
    "collection": "Original",
    "id": 14,
    "rows": 4,
    "columns": 4,
    "difficulty": 2,
    "isSpecialTutorial": false,
    "specialTutorialIndex": 0,
    "tutorial": [],
    "objectives": [
        {
            "solution": [
                {
                    "row": 1,
                    "column": 2,
                    "text": ""
                },
                {
                    "row": 2,
                    "column": 2,
                    "text": ""
                },
                {
                    "row": 3,
                    "column": 2,
                    "text": ""
                },
                {
                    "row": 3,
                    "column": 1,
                    "text": ""
                }
            ]
        },
        {
            "solution": [
                {
                    "row": 2,
                    "column": 0,
                    "text": ""
                },
                {
                    "row": 2,
                    "column": 1,
                    "text": ""
                },
                {
                    "row": 1,
                    "column": 2,
                    "text": ""
                },
                {
                    "row": 2,
                    "column": 2,
                    "text": ""
                },
                {
                    "row": 2,
                    "column": 3,
                    "text": ""
                }
            ]
        },
        {
            "solution": [
                {
                    "row": 3,
                    "column": 1,
                    "text": ""
                },
                {
                    "row": 2,
                    "column": 1,
                    "text": ""
                },
                {
                    "row": 1,
                    "column": 2,
                    "text": ""
                },
                {
                    "row": 2,
                    "column": 2,
                    "text": ""
                },
                {
                    "row": 3,
                    "column": 2,
                    "text": ""
                }
            ]
        }
    ],
    "piece": [
        "0",
        "0",
        "RP",
        "0",
        "0",
        "RP",
        "0",
        "RP",
        "0",
        "RP",
        "0",
        "0",
        "RP",
        "0",
        "0",
        "RP"
    ],
    "tile": [
        "0",
        "0",
        "0",
        "0",
        "0",
        "0",
        "0",
        "0",
        "0",
        "0",
        "0",
        "0",
        "0",
        "0",
        "0",
        "0"
    ],
    "item": [
        "0",
        "0",
        "0",
        "0",
        "0",
        "0",
        "0",
        "0",
        "0",
        "0",
        "0",
        "0",
        "0",
        "0",
        "0",
        "0"
    ],
    "path": ""
}