{
    "name": "TechnoGloopie",
    "collection": "Sliding",
    "id": 22,
    "rows": 8,
    "columns": 7,
    "difficulty": 3,
    "isSpecialTutorial": false,
    "specialTutorialIndex": 0,
    "tutorial": [],
    "objectives": [
        {
            "solution": [
                {
                    "row": 2,
                    "column": 6,
                    "text": ""
                },
                {
                    "row": 2,
                    "column": 5,
                    "text": ""
                },
                {
                    "row": 4,
                    "column": 6,
                    "text": ""
                },
                {
                    "row": 6,
                    "column": 5,
                    "text": ""
                },
                {
                    "row": 6,
                    "column": 4,
                    "text": ""
                },
                {
                    "row": 0,
                    "column": 2,
                    "text": ""
                },
                {
                    "row": 4,
                    "column": 5,
                    "text": ""
                },
                {
                    "row": 1,
                    "column": 2,
                    "text": ""
                },
                {
                    "row": 4,
                    "column": 1,
                    "text": ""
                },
                {
                    "row": 4,
                    "column": 4,
                    "text": ""
                },
                {
                    "row": 3,
                    "column": 4,
                    "text": ""
                },
                {
                    "row": 3,
                    "column": 1,
                    "text": ""
                },
                {
                    "row": 3,
                    "column": 3,
                    "text": ""
                },
                {
                    "row": 3,
                    "column": 2,
                    "text": ""
                }
            ]
        },
        {
            "solution": [
                {
                    "row": 2,
                    "column": 6,
                    "text": ""
                },
                {
                    "row": 6,
                    "column": 4,
                    "text": ""
                },
                {
                    "row": 4,
                    "column": 1,
                    "text": ""
                },
                {
                    "row": 3,
                    "column": 1,
                    "text": ""
                },
                {
                    "row": 2,
                    "column": 4,
                    "text": ""
                },
                {
                    "row": 2,
                    "column": 5,
                    "text": ""
                },
                {
                    "row": 0,
                    "column": 2,
                    "text": ""
                },
                {
                    "row": 4,
                    "column": 6,
                    "text": ""
                },
                {
                    "row": 1,
                    "column": 2,
                    "text": ""
                },
                {
                    "row": 5,
                    "column": 6,
                    "text": ""
                },
                {
                    "row": 5,
                    "column": 5,
                    "text": ""
                },
                {
                    "row": 5,
                    "column": 4,
                    "text": ""
                },
                {
                    "row": 4,
                    "column": 4,
                    "text": ""
                }
            ]
        },
        {
            "solution": [
                {
                    "row": 4,
                    "column": 1,
                    "text": ""
                },
                {
                    "row": 3,
                    "column": 1,
                    "text": ""
                },
                {
                    "row": 2,
                    "column": 6,
                    "text": ""
                },
                {
                    "row": 0,
                    "column": 2,
                    "text": ""
                },
                {
                    "row": 4,
                    "column": 6,
                    "text": ""
                },
                {
                    "row": 6,
                    "column": 5,
                    "text": ""
                },
                {
                    "row": 6,
                    "column": 4,
                    "text": ""
                },
                {
                    "row": 1,
                    "column": 2,
                    "text": ""
                },
                {
                    "row": 4,
                    "column": 5,
                    "text": ""
                },
                {
                    "row": 5,
                    "column": 5,
                    "text": ""
                },
                {
                    "row": 5,
                    "column": 4,
                    "text": ""
                },
                {
                    "row": 2,
                    "column": 5,
                    "text": ""
                },
                {
                    "row": 4,
                    "column": 4,
                    "text": ""
                },
                {
                    "row": 3,
                    "column": 4,
                    "text": ""
                },
                {
                    "row": 2,
                    "column": 4,
                    "text": ""
                }
            ]
        }
    ],
    "piece": [
        "0",
        "CSP:GP:RP",
        "0",
        "CSP:GP:RP",
        "0",
        "0",
        "0",
        "0",
        "CSP:RP:GP",
        "0",
        "0",
        "0",
        "CSP:GP:RP",
        "GP",
        "0",
        "0",
        "0",
        "CSP:GP:RP",
        "0",
        "0",
        "0",
        "CSP:GP:RP",
        "0",
        "0",
        "0",
        "0",
        "0",
        "CSP:GP:RP",
        "CSP:GP:RP",
        "0",
        "GP",
        "0",
        "CSP:GP:RP",
        "CSP:GP:RP",
        "0",
        "0",
        "0",
        "0",
        "0",
        "0",
        "RP",
        "CSP:GP:RP",
        "0",
        "0",
        "0",
        "CSP:GP:RP",
        "0",
        "0",
        "RP",
        "0",
        "0",
        "0",
        "0",
        "CSP:GP:RP",
        "0",
        "0"
    ],
    "tile": [
        "0",
        "0",
        "CS:GP:RP",
        "0",
        "BL",
        "0",
        "0",
        "BL",
        "0",
        "SL:D",
        "0",
        "0",
        "0",
        "0",
        "0",
        "SL:D",
        "0",
        "0",
        "CS:GP:RP",
        "SL:L",
        "CS:GP:RP",
        "0",
        "SL:R",
        "0",
        "CS:GP:RP",
        "0",
        "BL",
        "0",
        "0",
        "CS:GP:RP",
        "0",
        "SL:U",
        "0",
        "0",
        "0",
        "0",
        "SL:U",
        "0",
        "BL",
        "0",
        "0",
        "0",
        "BL",
        "0",
        "SL:R",
        "0",
        "SL:U",
        "CS:GP:RP",
        "0",
        "0",
        "0",
        "0",
        "0",
        "0",
        "0",
        "0"
    ],
    "item": [
        "0",
        "0",
        "0",
        "0",
        "0",
        "0",
        "0",
        "0",
        "0",
        "0",
        "0",
        "0",
        "0",
        "0",
        "0",
        "0",
        "0",
        "0",
        "0",
        "0",
        "0",
        "0",
        "0",
        "0",
        "0",
        "0",
        "0",
        "0",
        "0",
        "0",
        "0",
        "0",
        "0",
        "0",
        "0",
        "0",
        "0",
        "0",
        "0",
        "0",
        "0",
        "0",
        "0",
        "0",
        "0",
        "0",
        "0",
        "0",
        "0",
        "0",
        "0",
        "0",
        "0",
        "0",
        "0",
        "0"
    ],
    "path": ""
}