{
    "name": "Escape Tunnel",
    "collection": "Sliding",
    "id": 15,
    "rows": 7,
    "columns": 7,
    "difficulty": 1,
    "isSpecialTutorial": false,
    "specialTutorialIndex": 0,
    "tutorial": [],
    "objectives": [
        {
            "solution": [
                {
                    "row": 0,
                    "column": 4,
                    "text": ""
                }
            ]
        }
    ],
    "piece": [
        "0",
        "0",
        "0",
        "0",
        "0",
        "GP",
        "0",
        "0",
        "0",
        "0",
        "0",
        "GP",
        "0",
        "0",
        "0",
        "0",
        "0",
        "0",
        "0",
        "0",
        "0",
        "0",
        "0",
        "0",
        "0",
        "0",
        "0",
        "0",
        "0",
        "0",
        "0",
        "0",
        "0",
        "0",
        "0",
        "0",
        "0",
        "0",
        "0",
        "0",
        "0",
        "0",
        "0",
        "0",
        "0",
        "0",
        "0",
        "0",
        "0"
    ],
    "tile": [
        "BM:TL",
        "0",
        "0",
        "0",
        "SL:L",
        "0",
        "0",
        "0",
        "BM:TL",
        "0",
        "0",
        "0",
        "0",
        "BM:TR",
        "0",
        "0",
        "BM:TL",
        "0",
        "0",
        "BM:TR",
        "0",
        "0",
        "0",
        "BM:BL",
        "0",
        "BL",
        "0",
        "0",
        "0",
        "0",
        "0",
        "0",
        "0",
        "0",
        "0",
        "0",
        "BM:BL",
        "0",
        "0",
        "0",
        "BM:BR",
        "0",
        "BM:BL",
        "0",
        "0",
        "0",
        "0",
        "0",
        "BM:BR"
    ],
    "item": [],
    "path": ""
}