{
    "name": "Trips ",
    "collection": "Sliding",
    "id": 19,
    "rows": 6,
    "columns": 6,
    "difficulty": 1,
    "isSpecialTutorial": false,
    "specialTutorialIndex": 0,
    "tutorial": [],
    "objectives": [
        {
            "solution": [
                {
                    "row": 1,
                    "column": 0,
                    "text": ""
                },
                {
                    "row": 4,
                    "column": 1,
                    "text": ""
                },
                {
                    "row": 3,
                    "column": 1,
                    "text": ""
                }
            ]
        }
    ],
    "piece": [
        "GP",
        "0",
        "0",
        "0",
        "0",
        "0",
        "0",
        "0",
        "0",
        "0",
        "0",
        "0",
        "GP",
        "0",
        "0",
        "0",
        "0",
        "0",
        "0",
        "0",
        "0",
        "0",
        "0",
        "0",
        "GP",
        "0",
        "0",
        "0",
        "0",
        "0",
        "0",
        "GP",
        "0",
        "0",
        "0",
        "0"
    ],
    "tile": [
        "0",
        "0",
        "0",
        "0",
        "0",
        "0",
        "SL:R",
        "0",
        "0",
        "CS:GP:RP",
        "0",
        "BM:TR",
        "0",
        "0",
        "0",
        "0",
        "0",
        "0",
        "0",
        "0",
        "0",
        "CS:GP:RP",
        "0",
        "BM:BR",
        "0",
        "0",
        "0",
        "0",
        "0",
        "0",
        "0",
        "0",
        "0",
        "0",
        "0",
        "0"
    ],
    "item": [
        "0",
        "0",
        "0",
        "0",
        "0",
        "0",
        "0",
        "0",
        "0",
        "0",
        "0",
        "0",
        "0",
        "0",
        "0",
        "0",
        "0",
        "0",
        "0",
        "0",
        "0",
        "0",
        "0",
        "0",
        "0",
        "0",
        "0",
        "0",
        "0",
        "0",
        "0",
        "0",
        "0",
        "0",
        "0",
        "0"
    ],
    "path": ""
}