{
    "name": "On To The Next!",
    "collection": "Sliding",
    "id": 25,
    "rows": 7,
    "columns": 7,
    "difficulty": 1,
    "isSpecialTutorial": false,
    "specialTutorialIndex": 0,
    "tutorial": [],
    "objectives": [
        {
            "solution": [
                {
                    "row": 0,
                    "column": 3,
                    "text": ""
                }
            ]
        }
    ],
    "piece": [
        "0",
        "0",
        "0",
        "0",
        "CSP:GP:RP",
        "0",
        "0",
        "0",
        "0",
        "0",
        "CSP:GP:RP",
        "0",
        "0",
        "0",
        "0",
        "0",
        "0",
        "0",
        "0",
        "0",
        "0",
        "0",
        "0",
        "0",
        "0",
        "0",
        "0",
        "0",
        "0",
        "0",
        "0",
        "0",
        "0",
        "0",
        "0",
        "0",
        "0",
        "0",
        "0",
        "0",
        "0",
        "0",
        "0",
        "0",
        "0",
        "0",
        "0",
        "0",
        "0"
    ],
    "tile": [
        "BM:TL",
        "CS:GP:BP",
        "0",
        "SL:L",
        "0",
        "0",
        "0",
        "0",
        "BM:TL",
        "0",
        "0",
        "0",
        "0",
        "BM:TR",
        "0",
        "0",
        "BM:TL",
        "0",
        "0",
        "BM:TR",
        "0",
        "CS:BP:RP",
        "CS:BP:RP",
        "BM:BL",
        "CS:GP:BP",
        "BL",
        "CS:GP:BP",
        "CS:GP:BP",
        "0",
        "0",
        "0",
        "0",
        "0",
        "0",
        "0",
        "0",
        "BM:BL",
        "0",
        "CS:GP:RP",
        "0",
        "BM:BR",
        "0",
        "BM:BL",
        "0",
        "0",
        "CS:GP:RP",
        "0",
        "0",
        "BM:BR"
    ],
    "item": [
        "0",
        "0",
        "0",
        "0",
        "0",
        "0",
        "0",
        "0",
        "0",
        "0",
        "0",
        "0",
        "0",
        "0",
        "0",
        "0",
        "0",
        "0",
        "0",
        "0",
        "0",
        "0",
        "0",
        "0",
        "0",
        "0",
        "0",
        "0",
        "0",
        "0",
        "0",
        "0",
        "0",
        "0",
        "0",
        "0",
        "0",
        "0",
        "0",
        "0",
        "0",
        "0",
        "0",
        "0",
        "0",
        "0",
        "0",
        "0",
        "0"
    ],
    "path": ""
}