%YAML 1.1
%TAG !u! tag:unity3d.com,2011:
--- !u!114 &11400000
MonoBehaviour:
  m_ObjectHideFlags: 0
  m_PrefabParentObject: {fileID: 0}
  m_PrefabInternal: {fileID: 0}
  m_GameObject: {fileID: 0}
  m_Enabled: 1
  m_EditorHideFlags: 0
  m_Script: {fileID: 11500000, guid: b1bb0f616dd4b46df84b8c53c3cbebe2, type: 3}
  m_Name: TileSwap
  m_EditorClassIdentifier: 
  collectionName: Tile Swap
  id: 1
  cost: 1200
  gateCost: 8000
  folderPath: Levels/TileSwap
  LevelValues:
  - data:
      name: Gloopies Morph!
      collection: TileSwap
      id: 0
      rows: 3
      columns: 3
      difficulty: 1
      isSpecialTutorial: 0
      specialTutorialIndex: 0
      tutorial:
      - row: 0
        column: 1
        text: Tutorial/TileSwap_0_0
      - row: 1
        column: 1
        text: 
      objectives: []
      piece:
      - RP
      - 0
      - RP
      - 0
      - 0
      - 0
      - 0
      - GP
      - 0
      tile:
      - 0
      - CS:GP:RP
      - 0
      - 0
      - 0
      - 0
      - 0
      - 0
      - 0
      item:
      - 0
      - 0
      - 0
      - 0
      - 0
      - 0
      - 0
      - 0
      - 0
      path: 
    state:
      levelName: Gloopies Morph!
      levelNumber: 0
      tempLock: 1
      objectiveStates: []
    asset: {fileID: 4900000, guid: 4866e8f79dbc449a182a7f432aed6aa3, type: 3}
    order: 0
    path: TileSwap_3x3_GloopiesMorph!.json
  - data:
      name: We Want Red!
      collection: TileSwap
      id: 1
      rows: 3
      columns: 3
      difficulty: 1
      isSpecialTutorial: 0
      specialTutorialIndex: 0
      tutorial: []
      objectives:
      - solution:
        - row: 0
          column: 1
          text: 
        - row: 2
          column: 1
          text: 
        - row: 1
          column: 1
          text: 
      - solution:
        - row: 0
          column: 1
          text: 
        - row: 2
          column: 1
          text: 
        - row: 0
          column: 2
          text: 
        - row: 1
          column: 1
          text: 
        - row: 1
          column: 2
          text: 
      - solution:
        - row: 0
          column: 1
          text: 
        - row: 2
          column: 1
          text: 
        - row: 0
          column: 0
          text: 
        - row: 1
          column: 1
          text: 
        - row: 1
          column: 0
          text: 
      piece:
      - GP
      - 0
      - GP
      - RP
      - 0
      - RP
      - GP
      - 0
      - GP
      - 0
      tile:
      - 0
      - CS:GP:RP
      - 0
      - 0
      - 0
      - 0
      - 0
      - CS:GP:RP
      - 0
      item:
      - 0
      - 0
      - 0
      - 0
      - 0
      - 0
      - 0
      - 0
      - 0
      path: 
    state:
      levelName: We Want Red!
      levelNumber: 1
      tempLock: 1
      objectiveStates:
      - complete: 0
      - complete: 0
      - complete: 0
    asset: {fileID: 4900000, guid: 6849da0877b8540bb8ef94be5fbc9f42, type: 3}
    order: 0
    path: TileSwap_3x3_WeWantRed!.json
  - data:
      name: We Meet Again
      collection: TileSwap
      id: 2
      rows: 4
      columns: 4
      difficulty: 1
      isSpecialTutorial: 0
      specialTutorialIndex: 0
      tutorial: []
      objectives:
      - solution:
        - row: 1
          column: 2
          text: 
        - row: 2
          column: 2
          text: 
        - row: 1
          column: 2
          text: 
        - row: 2
          column: 2
          text: 
      piece:
      - 0
      - 0
      - GP
      - 0
      - 0
      - RP
      - 0
      - GP
      - 0
      - RP
      - 0
      - 0
      - 0
      - 0
      - GP
      - 0
      tile:
      - 0
      - 0
      - 0
      - 0
      - 0
      - 0
      - CS:GP:RP
      - 0
      - 0
      - 0
      - 0
      - 0
      - 0
      - 0
      - 0
      - 0
      item:
      - 0
      - 0
      - 0
      - 0
      - 0
      - 0
      - 0
      - 0
      - 0
      - 0
      - 0
      - 0
      - 0
      - 0
      - 0
      - 0
      path: 
    state:
      levelName: We Meet Again
      levelNumber: 2
      tempLock: 1
      objectiveStates:
      - complete: 0
    asset: {fileID: 4900000, guid: a8317a9ee5c074aa8bfcc4c0062c054c, type: 3}
    order: 0
    path: TileSwap_4x4_WeMeetAgain.json
  - data:
      name: Cornered
      collection: TileSwap
      id: 3
      rows: 3
      columns: 3
      difficulty: 1
      isSpecialTutorial: 0
      specialTutorialIndex: 0
      tutorial: []
      objectives:
      - solution:
        - row: 1
          column: 1
          text: 
        - row: 1
          column: 0
          text: 
        - row: 2
          column: 1
          text: 
        - row: 2
          column: 0
          text: 
      - solution:
        - row: 1
          column: 1
          text: 
        - row: 2
          column: 1
          text: 
        - row: 1
          column: 0
          text: 
        - row: 1
          column: 1
          text: 
      piece:
      - GP
      - GP
      - 0
      - GP
      - 0
      - 0
      - GP
      - 0
      - RP
      tile:
      - 0
      - 0
      - 0
      - 0
      - CS:GP:RP
      - 0
      - 0
      - CS:GP:RP
      - 0
      item:
      - 0
      - 0
      - 0
      - 0
      - 0
      - 0
      - 0
      - 0
      - 0
      path: 
    state:
      levelName: Cornered
      levelNumber: 3
      tempLock: 1
      objectiveStates:
      - complete: 0
      - complete: 0
    asset: {fileID: 4900000, guid: 7fbb57a4ab53e4e20b405bc67a99ea54, type: 3}
    order: 0
    path: TileSwap_3x3_Cornered.json
  - data:
      name: Green or Red?
      collection: TileSwap
      id: 4
      rows: 4
      columns: 4
      difficulty: 2
      isSpecialTutorial: 0
      specialTutorialIndex: 0
      tutorial: []
      objectives:
      - solution:
        - row: 1
          column: 2
          text: 
        - row: 1
          column: 1
          text: 
        - row: 2
          column: 1
          text: 
        - row: 2
          column: 2
          text: 
      - solution:
        - row: 2
          column: 1
          text: 
        - row: 2
          column: 2
          text: 
        - row: 1
          column: 2
          text: 
        - row: 1
          column: 1
          text: 
      - solution:
        - row: 1
          column: 1
          text: 
        - row: 2
          column: 1
          text: 
        - row: 2
          column: 2
          text: 
        - row: 1
          column: 2
          text: 
      piece:
      - 0
      - GP
      - RP
      - 0
      - GP
      - 0
      - 0
      - 0
      - 0
      - 0
      - RP
      - RP
      - 0
      - RP
      - 0
      - 0
      tile:
      - 0
      - 0
      - 0
      - 0
      - 0
      - CS:GP:RP
      - CS:GP:RP
      - 0
      - 0
      - 0
      - 0
      - 0
      - 0
      - 0
      - 0
      - 0
      item:
      - 0
      - 0
      - 0
      - 0
      - 0
      - 0
      - 0
      - 0
      - 0
      - 0
      - 0
      - 0
      - 0
      - 0
      - 0
      - 0
      path: 
    state:
      levelName: Green or Red?
      levelNumber: 4
      tempLock: 1
      objectiveStates:
      - complete: 0
      - complete: 0
      - complete: 0
    asset: {fileID: 4900000, guid: b066e99f42a354164b4c6bfa4f907757, type: 3}
    order: 0
    path: TileSwap_4x4_GreenorRed?.json
  - data:
      name: Apple of my Eye
      collection: TileSwap
      id: 5
      rows: 4
      columns: 4
      difficulty: 1
      isSpecialTutorial: 0
      specialTutorialIndex: 0
      tutorial: []
      objectives:
      - solution:
        - row: 0
          column: 2
          text: 
        - row: 2
          column: 0
          text: 
        - row: 1
          column: 2
          text: 
        - row: 2
          column: 2
          text: 
        - row: 2
          column: 1
          text: 
      - solution:
        - row: 2
          column: 0
          text: 
        - row: 0
          column: 2
          text: 
        - row: 2
          column: 2
          text: 
        - row: 1
          column: 0
          text: 
        - row: 1
          column: 2
          text: 
        - row: 1
          column: 1
          text: 
      - solution:
        - row: 0
          column: 2
          text: 
        - row: 2
          column: 0
          text: 
        - row: 2
          column: 1
          text: 
        - row: 2
          column: 2
          text: 
        - row: 1
          column: 2
          text: 
      piece:
      - 0
      - BP
      - 0
      - 0
      - BP
      - RP
      - BP
      - 0
      - 0
      - BP
      - 0
      - RP
      - 0
      - 0
      - RP
      - 0
      tile:
      - 0
      - 0
      - CS:BP:RP
      - 0
      - 0
      - 0
      - 0
      - 0
      - CS:BP:RP
      - 0
      - 0
      - 0
      - 0
      - 0
      - 0
      - 0
      item:
      - 0
      - 0
      - 0
      - 0
      - 0
      - 0
      - 0
      - 0
      - 0
      - 0
      - 0
      - 0
      - 0
      - 0
      - 0
      - 0
      path: 
    state:
      levelName: Apple of my Eye
      levelNumber: 5
      tempLock: 1
      objectiveStates:
      - complete: 0
      - complete: 0
      - complete: 0
    asset: {fileID: 4900000, guid: fa5e535bec3da464c875db7ac5e2c8d9, type: 3}
    order: 0
    path: TileSwap_4x4_AppleofmyEye.json
  - data:
      name: Pick 'Em
      collection: TileSwap
      id: 6
      rows: 5
      columns: 5
      difficulty: 2
      isSpecialTutorial: 0
      specialTutorialIndex: 0
      tutorial: []
      objectives:
      - solution:
        - row: 1
          column: 2
          text: 
        - row: 1
          column: 1
          text: 
        - row: 2
          column: 2
          text: 
        - row: 1
          column: 2
          text: 
        - row: 2
          column: 1
          text: 
        - row: 2
          column: 2
          text: 
        - row: 2
          column: 3
          text: 
        - row: 4
          column: 3
          text: 
        - row: 3
          column: 3
          text: 
      - solution:
        - row: 4
          column: 3
          text: 
        - row: 3
          column: 3
          text: 
        - row: 1
          column: 2
          text: 
        - row: 2
          column: 3
          text: 
        - row: 2
          column: 2
          text: 
        - row: 2
          column: 1
          text: 
        - row: 1
          column: 1
          text: 
      - solution:
        - row: 1
          column: 2
          text: 
        - row: 4
          column: 3
          text: 
        - row: 3
          column: 3
          text: 
        - row: 2
          column: 1
          text: 
        - row: 2
          column: 3
          text: 
        - row: 2
          column: 2
          text: 
        - row: 1
          column: 1
          text: 
        - row: 1
          column: 2
          text: 
      piece:
      - 0
      - RP
      - GP
      - 0
      - 0
      - RP
      - 0
      - 0
      - GP
      - 0
      - RP
      - 0
      - 0
      - GP
      - GP
      - 0
      - RP
      - 0
      - 0
      - 0
      - 0
      - 0
      - GP
      - 0
      - GP
      tile:
      - 0
      - 0
      - 0
      - 0
      - 0
      - 0
      - 0
      - 0
      - 0
      - 0
      - 0
      - 0
      - CS:GP:RP
      - 0
      - 0
      - 0
      - 0
      - 0
      - 0
      - 0
      - 0
      - 0
      - 0
      - 0
      - 0
      item:
      - 0
      - 0
      - 0
      - 0
      - 0
      - 0
      - 0
      - 0
      - 0
      - 0
      - 0
      - 0
      - 0
      - 0
      - 0
      - 0
      - 0
      - 0
      - 0
      - 0
      - 0
      - 0
      - 0
      - 0
      - 0
      path: 
    state:
      levelName: Pick 'Em
      levelNumber: 6
      tempLock: 1
      objectiveStates:
      - complete: 0
      - complete: 0
      - complete: 0
    asset: {fileID: 4900000, guid: 4f906415cc2a347478b3d9df8fab686a, type: 3}
    order: 0
    path: TileSwap_5x5_Pick'Em.json
  - data:
      name: Red Stairway
      collection: TileSwap
      id: 7
      rows: 6
      columns: 6
      difficulty: 1
      isSpecialTutorial: 0
      specialTutorialIndex: 0
      tutorial: []
      objectives:
      - solution:
        - row: 1
          column: 5
          text: 
        - row: 1
          column: 4
          text: 
        - row: 2
          column: 4
          text: 
        - row: 2
          column: 3
          text: 
        - row: 4
          column: 1
          text: 
        - row: 4
          column: 2
          text: 
        - row: 3
          column: 2
          text: 
        - row: 2
          column: 2
          text: 
      - solution:
        - row: 0
          column: 3
          text: 
        - row: 1
          column: 3
          text: 
        - row: 4
          column: 1
          text: 
        - row: 4
          column: 2
          text: 
        - row: 3
          column: 2
          text: 
        - row: 2
          column: 4
          text: 
        - row: 2
          column: 3
          text: 
        - row: 3
          column: 3
          text: 
      piece:
      - 0
      - 0
      - 0
      - 0
      - RP
      - 0
      - 0
      - 0
      - 0
      - RP
      - RP
      - 0
      - 0
      - 0
      - RP
      - 0
      - 0
      - RP
      - 0
      - RP
      - 0
      - 0
      - RP
      - 0
      - GP
      - 0
      - 0
      - RP
      - 0
      - 0
      - 0
      - GP
      - RP
      - 0
      - 0
      - 0
      tile:
      - 0
      - 0
      - 0
      - 0
      - 0
      - 0
      - 0
      - 0
      - 0
      - 0
      - 0
      - 0
      - 0
      - 0
      - 0
      - CS:GP:RP
      - 0
      - 0
      - 0
      - 0
      - CS:GP:RP
      - 0
      - 0
      - 0
      - 0
      - CS:GP:RP
      - 0
      - 0
      - 0
      - 0
      - 0
      - 0
      - 0
      - 0
      - 0
      - 0
      item:
      - 0
      - 0
      - 0
      - 0
      - 0
      - 0
      - 0
      - 0
      - 0
      - 0
      - 0
      - 0
      - 0
      - 0
      - 0
      - 0
      - 0
      - 0
      - 0
      - 0
      - 0
      - 0
      - 0
      - 0
      - 0
      - 0
      - 0
      - 0
      - 0
      - 0
      - 0
      - 0
      - 0
      - 0
      - 0
      - 0
      path: 
    state:
      levelName: Red Stairway
      levelNumber: 7
      tempLock: 1
      objectiveStates:
      - complete: 0
      - complete: 0
    asset: {fileID: 4900000, guid: 60477517cf9e545359b509d6e07f095a, type: 3}
    order: 0
    path: TileSwap_6x6_RedStairway.json
  - data:
      name: Follow the Leader
      collection: TileSwap
      id: 8
      rows: 5
      columns: 5
      difficulty: 2
      isSpecialTutorial: 0
      specialTutorialIndex: 0
      tutorial: []
      objectives:
      - solution:
        - row: 1
          column: 2
          text: 
        - row: 1
          column: 1
          text: 
        - row: 2
          column: 1
          text: 
        - row: 3
          column: 1
          text: 
        - row: 3
          column: 2
          text: 
        - row: 1
          column: 3
          text: 
        - row: 3
          column: 3
          text: 
        - row: 2
          column: 3
          text: 
      - solution:
        - row: 3
          column: 2
          text: 
        - row: 2
          column: 2
          text: 
        - row: 3
          column: 1
          text: 
        - row: 2
          column: 1
          text: 
        - row: 1
          column: 1
          text: 
        - row: 1
          column: 2
          text: 
        - row: 1
          column: 3
          text: 
        - row: 2
          column: 3
          text: 
        - row: 3
          column: 3
          text: 
      - solution:
        - row: 1
          column: 2
          text: 
        - row: 2
          column: 2
          text: 
        - row: 1
          column: 1
          text: 
        - row: 2
          column: 1
          text: 
        - row: 3
          column: 1
          text: 
        - row: 3
          column: 2
          text: 
        - row: 3
          column: 3
          text: 
        - row: 2
          column: 3
          text: 
        - row: 1
          column: 3
          text: 
      piece:
      - 0
      - BP
      - 0
      - RP
      - 0
      - 0
      - BP
      - 0
      - BP
      - 0
      - 0
      - BP
      - 0
      - RP
      - 0
      - 0
      - BP
      - 0
      - BP
      - 0
      - 0
      - BP
      - 0
      - RP
      - 0
      tile:
      - 0
      - 0
      - 0
      - 0
      - 0
      - 0
      - 0
      - CS:BP:RP
      - 0
      - 0
      - 0
      - 0
      - 0
      - 0
      - 0
      - 0
      - 0
      - CS:BP:RP
      - 0
      - 0
      - 0
      - 0
      - 0
      - 0
      - 0
      item: []
      path: 
    state:
      levelName: Follow the Leader
      levelNumber: 8
      tempLock: 1
      objectiveStates:
      - complete: 0
      - complete: 0
      - complete: 0
    asset: {fileID: 4900000, guid: 607d411384fbb4c159f7bd743d3d7df9, type: 3}
    order: 0
    path: TileSwap_5x5_FollowtheLeader.json
  - data:
      name: Dont Mix
      collection: TileSwap
      id: 9
      rows: 6
      columns: 6
      difficulty: 2
      isSpecialTutorial: 0
      specialTutorialIndex: 0
      tutorial: []
      objectives:
      - solution:
        - row: 3
          column: 2
          text: 
        - row: 3
          column: 4
          text: 
        - row: 5
          column: 3
          text: 
        - row: 4
          column: 4
          text: 
        - row: 4
          column: 3
          text: 
        - row: 4
          column: 2
          text: 
        - row: 3
          column: 3
          text: 
        - row: 3
          column: 2
          text: 
        - row: 2
          column: 2
          text: 
        - row: 2
          column: 3
          text: 
        - row: 1
          column: 1
          text: 
        - row: 1
          column: 3
          text: 
        - row: 1
          column: 2
          text: 
      - solution:
        - row: 1
          column: 1
          text: 
        - row: 1
          column: 3
          text: 
        - row: 1
          column: 2
          text: 
        - row: 2
          column: 3
          text: 
        - row: 3
          column: 4
          text: 
        - row: 5
          column: 3
          text: 
        - row: 4
          column: 4
          text: 
        - row: 4
          column: 3
          text: 
        - row: 4
          column: 2
          text: 
        - row: 3
          column: 2
          text: 
        - row: 2
          column: 2
          text: 
      - solution:
        - row: 2
          column: 1
          text: 
        - row: 0
          column: 4
          text: 
        - row: 1
          column: 4
          text: 
        - row: 3
          column: 4
          text: 
        - row: 5
          column: 3
          text: 
        - row: 4
          column: 4
          text: 
        - row: 4
          column: 3
          text: 
        - row: 4
          column: 2
          text: 
        - row: 3
          column: 2
          text: 
        - row: 0
          column: 2
          text: 
        - row: 1
          column: 1
          text: 
        - row: 2
          column: 2
          text: 
        - row: 1
          column: 2
          text: 
        - row: 1
          column: 3
          text: 
      piece:
      - 0
      - RP
      - 0
      - RP
      - 0
      - 0
      - RP
      - 0
      - RP
      - 0
      - RP
      - 0
      - 0
      - 0
      - RP
      - RP
      - RP
      - 0
      - 0
      - RP
      - 0
      - RP
      - 0
      - BP
      - 0
      - BP
      - 0
      - BP
      - BP
      - BP
      - 0
      - 0
      - 0
      - 0
      - BP
      - 0
      tile:
      - 0
      - 0
      - 0
      - 0
      - 0
      - 0
      - 0
      - 0
      - 0
      - 0
      - 0
      - 0
      - 0
      - 0
      - 0
      - 0
      - 0
      - 0
      - 0
      - 0
      - 0
      - 0
      - 0
      - 0
      - 0
      - 0
      - CS:BP:RP
      - 0
      - 0
      - 0
      - 0
      - 0
      - 0
      - 0
      - 0
      - 0
      item: []
      path: 
    state:
      levelName: Dont Mix
      levelNumber: 9
      tempLock: 1
      objectiveStates:
      - complete: 0
      - complete: 0
      - complete: 0
    asset: {fileID: 4900000, guid: 94c2b30b5cb0344da8c9b8f3dde48677, type: 3}
    order: 0
    path: TileSwap_6x6_DontMix.json
  - data:
      name: Swaptastic
      collection: TileSwap
      id: 10
      rows: 5
      columns: 5
      difficulty: 2
      isSpecialTutorial: 0
      specialTutorialIndex: 0
      tutorial: []
      objectives:
      - solution:
        - row: 0
          column: 3
          text: 
        - row: 1
          column: 3
          text: 
        - row: 2
          column: 3
          text: 
        - row: 2
          column: 4
          text: 
        - row: 3
          column: 4
          text: 
        - row: 3
          column: 3
          text: 
        - row: 3
          column: 2
          text: 
        - row: 2
          column: 2
          text: 
        - row: 3
          column: 0
          text: 
        - row: 2
          column: 0
          text: 
        - row: 2
          column: 1
          text: 
        - row: 1
          column: 1
          text: 
        - row: 1
          column: 2
          text: 
      - solution:
        - row: 3
          column: 0
          text: 
        - row: 0
          column: 3
          text: 
        - row: 1
          column: 3
          text: 
        - row: 2
          column: 3
          text: 
        - row: 2
          column: 4
          text: 
        - row: 3
          column: 4
          text: 
        - row: 3
          column: 1
          text: 
        - row: 2
          column: 1
          text: 
        - row: 1
          column: 1
          text: 
        - row: 1
          column: 2
          text: 
        - row: 2
          column: 2
          text: 
        - row: 3
          column: 2
          text: 
        - row: 3
          column: 3
          text: 
      piece:
      - 0
      - GP
      - BP
      - 0
      - BP
      - GP
      - BP
      - GP
      - BP
      - BP
      - BP
      - GP
      - GP
      - 0
      - BP
      - 0
      - BP
      - GP
      - BP
      - GP
      - 0
      - 0
      - GP
      - GP
      - BP
      tile:
      - 0
      - 0
      - 0
      - 0
      - 0
      - 0
      - 0
      - 0
      - 0
      - 0
      - 0
      - CS:GP:BP
      - 0
      - 0
      - 0
      - 0
      - 0
      - 0
      - 0
      - CS:GP:BP
      - 0
      - 0
      - 0
      - 0
      - 0
      item:
      - 0
      - 0
      - 0
      - 0
      - 0
      - 0
      - 0
      - 0
      - 0
      - 0
      - 0
      - 0
      - 0
      - 0
      - 0
      - 0
      - 0
      - 0
      - 0
      - 0
      - 0
      - 0
      path: 
    state:
      levelName: Swaptastic
      levelNumber: 10
      tempLock: 1
      objectiveStates:
      - complete: 0
      - complete: 0
    asset: {fileID: 4900000, guid: 76b9d91073fec4c31a37ae3b24e41eb3, type: 3}
    order: 0
    path: TileSwap_5x5_Swaptastic.json
  - data:
      name: Simply Swap
      collection: TileSwap
      id: 11
      rows: 3
      columns: 3
      difficulty: 2
      isSpecialTutorial: 0
      specialTutorialIndex: 0
      tutorial: []
      objectives:
      - solution:
        - row: 2
          column: 0
          text: 
        - row: 0
          column: 1
          text: 
        - row: 2
          column: 1
          text: 
        - row: 1
          column: 1
          text: 
      piece:
      - GP
      - 0
      - 0
      - GP
      - GP
      - 0
      - 0
      - CSP:GP:BP
      - CSP:GP:BP
      tile:
      - 0
      - 0
      - 0
      - 0
      - 0
      - 0
      - 0
      - 0
      - 0
      item:
      - 0
      - 0
      - 0
      - 0
      - 0
      - 0
      - 0
      - 0
      - 0
      path: 
    state:
      levelName: Simply Swap
      levelNumber: 11
      tempLock: 1
      objectiveStates:
      - complete: 0
    asset: {fileID: 4900000, guid: 4dca1318be60f40b6945b2e0dc37bd3b, type: 3}
    order: 0
    path: TileSwap_3x3_SimplySwap.json
  - data:
      name: Make Green or Blue
      collection: TileSwap
      id: 12
      rows: 5
      columns: 5
      difficulty: 2
      isSpecialTutorial: 0
      specialTutorialIndex: 0
      tutorial: []
      objectives:
      - solution:
        - row: 1
          column: 1
          text: 
        - row: 1
          column: 3
          text: 
        - row: 3
          column: 3
          text: 
        - row: 3
          column: 1
          text: 
        - row: 2
          column: 1
          text: 
        - row: 2
          column: 3
          text: 
        - row: 2
          column: 2
          text: 
      piece:
      - 0
      - CSP:GP:BP
      - 0
      - CSP:BP:GP
      - 0
      - CSP:GP:BP
      - 0
      - 0
      - 0
      - CSP:BP:GP
      - 0
      - 0
      - 0
      - 0
      - 0
      - CSP:BP:GP
      - 0
      - 0
      - 0
      - CSP:GP:BP
      - 0
      - CSP:BP:GP
      - 0
      - CSP:GP:BP
      - 0
      tile:
      - 0
      - 0
      - 0
      - 0
      - 0
      - 0
      - 0
      - 0
      - 0
      - 0
      - 0
      - 0
      - 0
      - 0
      - 0
      - 0
      - 0
      - 0
      - 0
      - 0
      - 0
      - 0
      - 0
      - 0
      - 0
      item:
      - 0
      - 0
      - 0
      - 0
      - 0
      - 0
      - 0
      - 0
      - 0
      - 0
      - 0
      - 0
      - 0
      - 0
      - 0
      - 0
      - 0
      - 0
      - 0
      - 0
      - 0
      - 0
      - 0
      - 0
      - 0
      path: 
    state:
      levelName: Make Green or Blue
      levelNumber: 12
      tempLock: 1
      objectiveStates:
      - complete: 0
    asset: {fileID: 4900000, guid: 74e4dd608b05c4047beb2943d747ef6d, type: 3}
    order: 0
    path: TileSwap_5x5_MakeGreenorBlue.json
  - data:
      name: Identity Crisis
      collection: TileSwap
      id: 13
      rows: 4
      columns: 4
      difficulty: 1
      isSpecialTutorial: 0
      specialTutorialIndex: 0
      tutorial: []
      objectives:
      - solution:
        - row: 1
          column: 1
          text: 
        - row: 1
          column: 2
          text: 
      - solution:
        - row: 1
          column: 2
          text: 
        - row: 1
          column: 1
          text: 
      piece:
      - 0
      - 0
      - CSP:BP:GP
      - 0
      - CSP:GP:BP
      - 0
      - 0
      - CSP:BP:GP
      - 0
      - CSP:GP:BP
      - 0
      - 0
      - 0
      - 0
      - 0
      - 0
      tile:
      - 0
      - 0
      - 0
      - 0
      - 0
      - 0
      - 0
      - 0
      - 0
      - 0
      - 0
      - 0
      - 0
      - 0
      - 0
      - 0
      item:
      - 0
      - 0
      - 0
      - 0
      - 0
      - 0
      - 0
      - 0
      - 0
      - 0
      - 0
      - 0
      - 0
      - 0
      - 0
      - 0
      path: 
    state:
      levelName: Identity Crisis
      levelNumber: 13
      tempLock: 1
      objectiveStates:
      - complete: 0
      - complete: 0
    asset: {fileID: 4900000, guid: ce91a11bfa1404370977bb130bfd6841, type: 3}
    order: 0
    path: TileSwap_4x4_IdentityCrisis.json
  - data:
      name: Laboratory Crossroads
      collection: TileSwap
      id: 14
      rows: 4
      columns: 4
      difficulty: 2
      isSpecialTutorial: 0
      specialTutorialIndex: 0
      tutorial: []
      objectives:
      - solution:
        - row: 1
          column: 3
          text: 
        - row: 2
          column: 1
          text: 
        - row: 1
          column: 2
          text: 
        - row: 1
          column: 1
          text: 
      - solution:
        - row: 1
          column: 3
          text: 
        - row: 1
          column: 1
          text: 
        - row: 2
          column: 3
          text: 
        - row: 2
          column: 1
          text: 
        - row: 2
          column: 2
          text: 
      - solution:
        - row: 3
          column: 0
          text: 
        - row: 0
          column: 2
          text: 
        - row: 2
          column: 0
          text: 
        - row: 1
          column: 2
          text: 
        - row: 1
          column: 1
          text: 
        - row: 1
          column: 0
          text: 
      piece:
      - 0
      - CSP:GP:BP
      - 0
      - CSP:BP:GP
      - CSP:GP:BP
      - 0
      - CSP:BP:GP
      - 0
      - CSP:GP:BP
      - 0
      - CSP:BP:GP
      - 0
      - 0
      - CSP:GP:BP
      - 0
      - 0
      tile:
      - 0
      - 0
      - 0
      - 0
      - 0
      - 0
      - 0
      - 0
      - 0
      - 0
      - 0
      - 0
      - 0
      - 0
      - 0
      - 0
      item: []
      path: 
    state:
      levelName: Laboratory Crossroads
      levelNumber: 14
      tempLock: 1
      objectiveStates:
      - complete: 0
      - complete: 0
      - complete: 0
    asset: {fileID: 4900000, guid: cbd63e8b30ef940e6bdc56178d6e595d, type: 3}
    order: 0
    path: TileSwap_4x4_LaboratoryCrossroads.json
  - data:
      name: Hot and Cold
      collection: TileSwap
      id: 15
      rows: 5
      columns: 5
      difficulty: 2
      isSpecialTutorial: 0
      specialTutorialIndex: 0
      tutorial: []
      objectives:
      - solution:
        - row: 0
          column: 0
          text: 
        - row: 0
          column: 1
          text: 
        - row: 3
          column: 1
          text: 
        - row: 3
          column: 2
          text: 
        - row: 2
          column: 2
          text: 
        - row: 2
          column: 3
          text: 
        - row: 2
          column: 2
          text: 
        - row: 1
          column: 3
          text: 
        - row: 1
          column: 2
          text: 
        - row: 0
          column: 2
          text: 
      - solution:
        - row: 1
          column: 3
          text: 
        - row: 1
          column: 1
          text: 
        - row: 2
          column: 3
          text: 
        - row: 2
          column: 2
          text: 
        - row: 2
          column: 1
          text: 
        - row: 1
          column: 2
          text: 
        - row: 2
          column: 2
          text: 
        - row: 3
          column: 2
          text: 
        - row: 4
          column: 2
          text: 
      - solution:
        - row: 3
          column: 1
          text: 
        - row: 1
          column: 3
          text: 
        - row: 2
          column: 3
          text: 
        - row: 3
          column: 2
          text: 
        - row: 2
          column: 2
          text: 
        - row: 2
          column: 0
          text: 
        - row: 1
          column: 2
          text: 
        - row: 1
          column: 1
          text: 
        - row: 2
          column: 1
          text: 
      piece:
      - 0
      - RP
      - RP
      - RP
      - 0
      - RP
      - 0
      - 0
      - 0
      - RP
      - 0
      - RP
      - RP
      - RP
      - BP
      - 0
      - 0
      - BP
      - 0
      - 0
      - 0
      - BP
      - BP
      - 0
      - 0
      tile:
      - 0
      - 0
      - 0
      - 0
      - 0
      - 0
      - 0
      - 0
      - 0
      - 0
      - 0
      - 0
      - CS:BP:RP
      - 0
      - 0
      - 0
      - 0
      - 0
      - 0
      - 0
      - 0
      - 0
      - 0
      - 0
      - 0
      item: []
      path: 
    state:
      levelName: Hot and Cold
      levelNumber: 15
      tempLock: 1
      objectiveStates:
      - complete: 0
      - complete: 0
      - complete: 0
    asset: {fileID: 4900000, guid: 4992f21d651e44544af85d252986c21e, type: 3}
    order: 0
    path: TileSwap_5x5_HotandCold.json
  - data:
      name: Feeling Blue
      collection: TileSwap
      id: 16
      rows: 4
      columns: 4
      difficulty: 2
      isSpecialTutorial: 0
      specialTutorialIndex: 0
      tutorial: []
      objectives:
      - solution:
        - row: 0
          column: 1
          text: 
        - row: 3
          column: 1
          text: 
        - row: 2
          column: 1
          text: 
        - row: 1
          column: 1
          text: 
        - row: 1
          column: 2
          text: 
      - solution:
        - row: 1
          column: 2
          text: 
        - row: 3
          column: 1
          text: 
        - row: 2
          column: 1
          text: 
        - row: 1
          column: 1
          text: 
      piece:
      - 0
      - 0
      - BP
      - 0
      - 0
      - CSP:BP:GP
      - 0
      - BP
      - 0
      - 0
      - GP
      - 0
      - GP
      - 0
      - GP
      - 0
      tile:
      - 0
      - 0
      - 0
      - 0
      - 0
      - 0
      - 0
      - 0
      - 0
      - CS:GP:BP
      - 0
      - 0
      - 0
      - 0
      - 0
      - 0
      item:
      - 0
      - 0
      - 0
      - 0
      - 0
      - 0
      - 0
      - 0
      - 0
      - 0
      - 0
      - 0
      - 0
      - 0
      - 0
      - 0
      path: 
    state:
      levelName: Feeling Blue
      levelNumber: 16
      tempLock: 1
      objectiveStates:
      - complete: 0
      - complete: 0
    asset: {fileID: 4900000, guid: dc4b2798b4cd3464296c2c9c26398bbd, type: 3}
    order: 0
    path: TileSwap_4x4_FeelingBlue.json
  - data:
      name: Colloid Solution
      collection: TileSwap
      id: 17
      rows: 6
      columns: 6
      difficulty: 1
      isSpecialTutorial: 0
      specialTutorialIndex: 0
      tutorial: []
      objectives:
      - solution:
        - row: 4
          column: 1
          text: 
        - row: 3
          column: 1
          text: 
        - row: 2
          column: 4
          text: 
        - row: 1
          column: 4
          text: 
        - row: 2
          column: 4
          text: 
        - row: 3
          column: 4
          text: 
        - row: 2
          column: 1
          text: 
        - row: 3
          column: 3
          text: 
        - row: 2
          column: 2
          text: 
        - row: 3
          column: 2
          text: 
      - solution:
        - row: 2
          column: 4
          text: 
        - row: 2
          column: 1
          text: 
        - row: 3
          column: 0
          text: 
        - row: 2
          column: 2
          text: 
        - row: 3
          column: 1
          text: 
        - row: 3
          column: 2
          text: 
        - row: 3
          column: 3
          text: 
        - row: 2
          column: 5
          text: 
        - row: 3
          column: 4
          text: 
        - row: 3
          column: 5
          text: 
      - solution:
        - row: 2
          column: 4
          text: 
        - row: 1
          column: 4
          text: 
        - row: 2
          column: 4
          text: 
        - row: 3
          column: 4
          text: 
        - row: 4
          column: 1
          text: 
        - row: 3
          column: 1
          text: 
        - row: 2
          column: 1
          text: 
        - row: 3
          column: 3
          text: 
        - row: 2
          column: 2
          text: 
        - row: 2
          column: 3
          text: 
      piece:
      - 0
      - 0
      - 0
      - 0
      - 0
      - 0
      - 0
      - CSP:RP:GP
      - CSP:RP:GP
      - 0
      - CSP:RP:GP
      - CSP:RP:GP
      - CSP:RP:GP
      - 0
      - 0
      - CSP:RP:GP
      - 0
      - 0
      - 0
      - CSP:GP:RP
      - CSP:GP:RP
      - 0
      - CSP:GP:RP
      - CSP:GP:RP
      - CSP:GP:RP
      - 0
      - 0
      - CSP:GP:RP
      - 0
      - 0
      - 0
      - 0
      - 0
      - 0
      - 0
      - 0
      tile:
      - 0
      - 0
      - 0
      - 0
      - 0
      - 0
      - 0
      - 0
      - 0
      - 0
      - 0
      - 0
      - 0
      - 0
      - 0
      - 0
      - CS:GP:RP
      - 0
      - 0
      - 0
      - 0
      - 0
      - 0
      - 0
      - 0
      - CS:GP:RP
      - 0
      - 0
      - 0
      - 0
      - 0
      - 0
      - 0
      - 0
      - 0
      - 0
      item:
      - 0
      - 0
      - 0
      - 0
      - 0
      - 0
      - 0
      - 0
      - 0
      - 0
      - 0
      - 0
      - 0
      - 0
      - 0
      - 0
      - 0
      - 0
      - 0
      - 0
      - 0
      - 0
      - 0
      - 0
      - 0
      - 0
      - 0
      - 0
      - 0
      - 0
      - 0
      - 0
      - 0
      - 0
      - 0
      - 0
      path: 
    state:
      levelName: Colloid Solution
      levelNumber: 17
      tempLock: 1
      objectiveStates:
      - complete: 0
      - complete: 0
      - complete: 0
    asset: {fileID: 4900000, guid: 03347bd530b17445db593ac02b1d3d23, type: 3}
    order: 0
    path: TileSwap_6x6_ColloidSolution.json
  - data:
      name: Heterogeneous Mixture
      collection: TileSwap
      id: 18
      rows: 7
      columns: 7
      difficulty: 1
      isSpecialTutorial: 0
      specialTutorialIndex: 0
      tutorial: []
      objectives:
      - solution:
        - row: 3
          column: 1
          text: 
        - row: 1
          column: 3
          text: 
        - row: 2
          column: 1
          text: 
        - row: 4
          column: 1
          text: 
        - row: 3
          column: 1
          text: 
        - row: 3
          column: 2
          text: 
        - row: 2
          column: 3
          text: 
        - row: 3
          column: 5
          text: 
        - row: 2
          column: 5
          text: 
        - row: 2
          column: 4
          text: 
        - row: 4
          column: 2
          text: 
        - row: 3
          column: 4
          text: 
        - row: 6
          column: 4
          text: 
        - row: 5
          column: 4
          text: 
        - row: 4
          column: 4
          text: 
        - row: 4
          column: 3
          text: 
      - solution:
        - row: 1
          column: 3
          text: 
        - row: 3
          column: 5
          text: 
        - row: 3
          column: 2
          text: 
        - row: 3
          column: 4
          text: 
        - row: 2
          column: 5
          text: 
        - row: 2
          column: 4
          text: 
        - row: 2
          column: 3
          text: 
        - row: 2
          column: 2
          text: 
        - row: 6
          column: 4
          text: 
        - row: 5
          column: 4
          text: 
        - row: 5
          column: 3
          text: 
        - row: 5
          column: 2
          text: 
        - row: 4
          column: 2
          text: 
        - row: 2
          column: 1
          text: 
        - row: 3
          column: 1
          text: 
        - row: 4
          column: 1
          text: 
      - solution:
        - row: 3
          column: 1
          text: 
        - row: 4
          column: 1
          text: 
        - row: 5
          column: 3
          text: 
        - row: 1
          column: 3
          text: 
        - row: 2
          column: 1
          text: 
        - row: 3
          column: 1
          text: 
        - row: 2
          column: 3
          text: 
        - row: 3
          column: 2
          text: 
        - row: 5
          column: 4
          text: 
        - row: 4
          column: 4
          text: 
        - row: 3
          column: 3
          text: 
        - row: 2
          column: 6
          text: 
        - row: 3
          column: 4
          text: 
        - row: 2
          column: 5
          text: 
        - row: 3
          column: 5
          text: 
      piece:
      - 0
      - 0
      - 0
      - GP
      - 0
      - 0
      - 0
      - 0
      - CSP:GP:BP
      - GP
      - 0
      - GP
      - CSP:BP:GP
      - 0
      - 0
      - BP
      - CSP:GP:BP
      - 0
      - CSP:BP:GP
      - GP
      - 0
      - BP
      - 0
      - 0
      - CSP:GP:BP
      - 0
      - 0
      - GP
      - 0
      - BP
      - CSP:BP:GP
      - 0
      - CSP:GP:BP
      - GP
      - 0
      - 0
      - CSP:BP:GP
      - BP
      - 0
      - BP
      - CSP:GP:BP
      - 0
      - 0
      - 0
      - 0
      - BP
      - 0
      - 0
      - 0
      tile:
      - 0
      - 0
      - 0
      - 0
      - 0
      - 0
      - 0
      - 0
      - 0
      - 0
      - CS:GP:BP
      - 0
      - 0
      - 0
      - 0
      - 0
      - 0
      - 0
      - 0
      - 0
      - 0
      - 0
      - CS:GP:BP
      - 0
      - CS:GP:BP
      - 0
      - CS:GP:BP
      - 0
      - 0
      - 0
      - 0
      - 0
      - 0
      - 0
      - 0
      - 0
      - 0
      - 0
      - CS:GP:BP
      - 0
      - 0
      - 0
      - 0
      - 0
      - 0
      - 0
      - 0
      - 0
      - 0
      item:
      - 0
      - 0
      - 0
      - 0
      - 0
      - 0
      - 0
      - 0
      - 0
      - 0
      - 0
      - 0
      - 0
      - 0
      - 0
      - 0
      - 0
      - 0
      - 0
      - 0
      - 0
      - 0
      - 0
      - 0
      - 0
      - 0
      - 0
      - 0
      - 0
      - 0
      - 0
      - 0
      - 0
      - 0
      - 0
      - 0
      - 0
      - 0
      - 0
      - 0
      - 0
      - 0
      - 0
      - 0
      - 0
      - 0
      - 0
      - 0
      - 0
      path: 
    state:
      levelName: Heterogeneous Mixture
      levelNumber: 18
      tempLock: 1
      objectiveStates:
      - complete: 0
      - complete: 0
      - complete: 0
    asset: {fileID: 4900000, guid: f21ee5c4a2de8479399a0d00bcf11a91, type: 3}
    order: 0
    path: TileSwap_7x7_HeterogeneousMixture.json
  - data:
      name: Distillation
      collection: TileSwap
      id: 19
      rows: 6
      columns: 6
      difficulty: 1
      isSpecialTutorial: 0
      specialTutorialIndex: 0
      tutorial: []
      objectives:
      - solution:
        - row: 0
          column: 4
          text: 
        - row: 1
          column: 4
          text: 
        - row: 0
          column: 2
          text: 
        - row: 0
          column: 3
          text: 
        - row: 1
          column: 3
          text: 
        - row: 2
          column: 1
          text: 
        - row: 1
          column: 1
          text: 
        - row: 2
          column: 1
          text: 
        - row: 2
          column: 4
          text: 
        - row: 2
          column: 3
          text: 
        - row: 2
          column: 2
          text: 
        - row: 4
          column: 4
          text: 
        - row: 3
          column: 2
          text: 
        - row: 4
          column: 3
          text: 
        - row: 5
          column: 2
          text: 
        - row: 5
          column: 1
          text: 
        - row: 4
          column: 2
          text: 
        - row: 4
          column: 1
          text: 
        - row: 4
          column: 0
          text: 
      - solution:
        - row: 0
          column: 4
          text: 
        - row: 1
          column: 4
          text: 
        - row: 0
          column: 2
          text: 
        - row: 0
          column: 3
          text: 
        - row: 1
          column: 3
          text: 
        - row: 2
          column: 1
          text: 
        - row: 1
          column: 1
          text: 
        - row: 2
          column: 1
          text: 
        - row: 2
          column: 4
          text: 
        - row: 2
          column: 3
          text: 
        - row: 2
          column: 2
          text: 
        - row: 4
          column: 4
          text: 
        - row: 3
          column: 2
          text: 
        - row: 5
          column: 2
          text: 
        - row: 3
          column: 1
          text: 
        - row: 4
          column: 1
          text: 
        - row: 4
          column: 2
          text: 
        - row: 4
          column: 3
          text: 
      - solution:
        - row: 0
          column: 4
          text: 
        - row: 1
          column: 4
          text: 
        - row: 2
          column: 1
          text: 
        - row: 2
          column: 4
          text: 
        - row: 0
          column: 2
          text: 
        - row: 0
          column: 3
          text: 
        - row: 1
          column: 1
          text: 
        - row: 1
          column: 2
          text: 
        - row: 3
          column: 1
          text: 
        - row: 4
          column: 4
          text: 
        - row: 5
          column: 2
          text: 
        - row: 4
          column: 1
          text: 
        - row: 4
          column: 2
          text: 
        - row: 3
          column: 4
          text: 
        - row: 3
          column: 3
          text: 
        - row: 3
          column: 2
          text: 
        - row: 1
          column: 3
          text: 
        - row: 2
          column: 3
          text: 
        - row: 2
          column: 2
          text: 
      piece:
      - 0
      - BP
      - 0
      - 0
      - 0
      - BP
      - BP
      - 0
      - BP
      - 0
      - BP
      - GP
      - GP
      - 0
      - BP
      - BP
      - GP
      - 0
      - BP
      - GP
      - 0
      - BP
      - GP
      - 0
      - BP
      - BP
      - GP
      - 0
      - 0
      - GP
      - 0
      - GP
      - 0
      - GP
      - GP
      - 0
      tile:
      - 0
      - 0
      - 0
      - 0
      - 0
      - 0
      - 0
      - 0
      - 0
      - CS:GP:BP
      - 0
      - 0
      - 0
      - CS:GP:BP
      - 0
      - 0
      - 0
      - CS:GP:BP
      - 0
      - 0
      - CS:GP:BP
      - 0
      - 0
      - 0
      - 0
      - 0
      - 0
      - 0
      - CS:GP:BP
      - 0
      - 0
      - 0
      - CS:GP:BP
      - 0
      - 0
      - 0
      item:
      - 0
      - 0
      - 0
      - 0
      - 0
      - 0
      - 0
      - 0
      - 0
      - 0
      - 0
      - 0
      - 0
      - 0
      - 0
      - 0
      - 0
      - 0
      - 0
      - 0
      - 0
      - 0
      - 0
      - 0
      - 0
      - 0
      - 0
      - 0
      - 0
      - 0
      - 0
      - 0
      - 0
      - 0
      - 0
      - 0
      path: 
    state:
      levelName: Distillation
      levelNumber: 19
      tempLock: 1
      objectiveStates:
      - complete: 0
      - complete: 0
      - complete: 0
    asset: {fileID: 4900000, guid: 6aa1ce508a1804a499882db89abd5f7d, type: 3}
    order: 0
    path: TileSwap_6x6_Distillation.json
  - data:
      name: Tetris Break
      collection: TileSwap
      id: 20
      rows: 8
      columns: 6
      difficulty: 1
      isSpecialTutorial: 0
      specialTutorialIndex: 0
      tutorial: []
      objectives:
      - solution:
        - row: 0
          column: 4
          text: 
        - row: 1
          column: 4
          text: 
        - row: 2
          column: 4
          text: 
        - row: 3
          column: 4
          text: 
        - row: 3
          column: 5
          text: 
        - row: 4
          column: 5
          text: 
        - row: 5
          column: 5
          text: 
        - row: 5
          column: 4
          text: 
        - row: 5
          column: 5
          text: 
        - row: 5
          column: 3
          text: 
        - row: 6
          column: 5
          text: 
        - row: 6
          column: 4
          text: 
        - row: 5
          column: 4
          text: 
        - row: 5
          column: 3
          text: 
        - row: 7
          column: 0
          text: 
        - row: 7
          column: 1
          text: 
        - row: 5
          column: 2
          text: 
        - row: 5
          column: 1
          text: 
        - row: 6
          column: 1
          text: 
        - row: 5
          column: 1
          text: 
        - row: 4
          column: 1
          text: 
        - row: 3
          column: 1
          text: 
        - row: 2
          column: 1
          text: 
      - solution:
        - row: 4
          column: 0
          text: 
        - row: 7
          column: 0
          text: 
        - row: 7
          column: 1
          text: 
        - row: 3
          column: 0
          text: 
        - row: 3
          column: 1
          text: 
        - row: 4
          column: 1
          text: 
        - row: 5
          column: 1
          text: 
        - row: 6
          column: 1
          text: 
        - row: 5
          column: 1
          text: 
        - row: 5
          column: 2
          text: 
        - row: 7
          column: 3
          text: 
        - row: 5
          column: 3
          text: 
        - row: 5
          column: 4
          text: 
        - row: 7
          column: 4
          text: 
        - row: 0
          column: 4
          text: 
        - row: 1
          column: 4
          text: 
        - row: 2
          column: 4
          text: 
        - row: 3
          column: 4
          text: 
        - row: 5
          column: 3
          text: 
        - row: 6
          column: 4
          text: 
        - row: 5
          column: 4
          text: 
        - row: 4
          column: 4
          text: 
      - solution:
        - row: 0
          column: 4
          text: 
        - row: 1
          column: 4
          text: 
        - row: 2
          column: 4
          text: 
        - row: 3
          column: 4
          text: 
        - row: 3
          column: 5
          text: 
        - row: 4
          column: 5
          text: 
        - row: 5
          column: 5
          text: 
        - row: 7
          column: 3
          text: 
        - row: 5
          column: 4
          text: 
        - row: 7
          column: 4
          text: 
        - row: 5
          column: 3
          text: 
        - row: 6
          column: 4
          text: 
        - row: 5
          column: 4
          text: 
        - row: 5
          column: 3
          text: 
        - row: 4
          column: 0
          text: 
        - row: 3
          column: 0
          text: 
        - row: 3
          column: 1
          text: 
        - row: 5
          column: 2
          text: 
        - row: 5
          column: 1
          text: 
        - row: 4
          column: 1
          text: 
        - row: 5
          column: 1
          text: 
        - row: 6
          column: 1
          text: 
      piece:
      - 0
      - 0
      - 0
      - 0
      - 0
      - RP
      - 0
      - 0
      - 0
      - 0
      - RP
      - RP
      - BP
      - 0
      - 0
      - 0
      - 0
      - RP
      - BP
      - BP
      - BP
      - BP
      - 0
      - 0
      - 0
      - BP
      - BP
      - RP
      - RP
      - BP
      - RP
      - 0
      - BP
      - BP
      - RP
      - BP
      - RP
      - RP
      - 0
      - RP
      - BP
      - RP
      - 0
      - RP
      - 0
      - 0
      - RP
      - RP
      tile:
      - 0
      - 0
      - 0
      - 0
      - 0
      - 0
      - 0
      - 0
      - 0
      - 0
      - 0
      - 0
      - 0
      - CS:BP:RP
      - 0
      - 0
      - CS:BP:RP
      - 0
      - 0
      - 0
      - 0
      - 0
      - 0
      - 0
      - 0
      - 0
      - 0
      - 0
      - 0
      - 0
      - 0
      - CS:BP:RP
      - 0
      - 0
      - CS:BP:RP
      - 0
      - 0
      - 0
      - 0
      - 0
      - 0
      - 0
      - 0
      - 0
      - 0
      - 0
      - 0
      - 0
      item:
      - 0
      - 0
      - 0
      - 0
      - 0
      - 0
      - 0
      - 0
      - 0
      - 0
      - 0
      - 0
      - 0
      - 0
      - 0
      - 0
      - 0
      - 0
      - 0
      - 0
      - 0
      - 0
      - 0
      - 0
      - 0
      - 0
      - 0
      - 0
      - 0
      - 0
      - 0
      - 0
      - 0
      - 0
      - 0
      - 0
      - 0
      - 0
      - 0
      - 0
      - 0
      - 0
      - 0
      - 0
      - 0
      - 0
      - 0
      - 0
      path: 
    state:
      levelName: Tetris Break
      levelNumber: 20
      tempLock: 1
      objectiveStates:
      - complete: 0
      - complete: 0
      - complete: 0
    asset: {fileID: 4900000, guid: 4d43756c0d8384c1e8bfb3d9180014e1, type: 3}
    order: 0
    path: TileSwap_8x6_TetrisBreak.json
  - data:
      name: Bubblies
      collection: TileSwap
      id: 21
      rows: 6
      columns: 6
      difficulty: 1
      isSpecialTutorial: 0
      specialTutorialIndex: 0
      tutorial: []
      objectives:
      - solution:
        - row: 1
          column: 4
          text: 
        - row: 2
          column: 4
          text: 
        - row: 4
          column: 4
          text: 
        - row: 4
          column: 3
          text: 
        - row: 3
          column: 3
          text: 
        - row: 1
          column: 2
          text: 
        - row: 3
          column: 2
          text: 
        - row: 2
          column: 2
          text: 
        - row: 2
          column: 3
          text: 
        - row: 2
          column: 1
          text: 
        - row: 2
          column: 2
          text: 
      - solution:
        - row: 1
          column: 4
          text: 
        - row: 3
          column: 5
          text: 
        - row: 4
          column: 4
          text: 
        - row: 4
          column: 3
          text: 
        - row: 3
          column: 3
          text: 
        - row: 3
          column: 4
          text: 
        - row: 2
          column: 4
          text: 
        - row: 2
          column: 3
          text: 
        - row: 2
          column: 1
          text: 
        - row: 2
          column: 2
          text: 
        - row: 1
          column: 2
          text: 
      - solution:
        - row: 2
          column: 1
          text: 
        - row: 1
          column: 2
          text: 
        - row: 2
          column: 2
          text: 
        - row: 2
          column: 4
          text: 
        - row: 1
          column: 4
          text: 
        - row: 4
          column: 4
          text: 
        - row: 4
          column: 3
          text: 
        - row: 3
          column: 3
          text: 
        - row: 1
          column: 2
          text: 
        - row: 1
          column: 3
          text: 
        - row: 2
          column: 3
          text: 
      piece:
      - 0
      - 0
      - BP
      - 0
      - RP
      - 0
      - 0
      - BP
      - 0
      - RP
      - 0
      - 0
      - BP
      - 0
      - RP
      - 0
      - 0
      - RP
      - 0
      - BP
      - RP
      - 0
      - RP
      - 0
      - 0
      - 0
      - BP
      - 0
      - 0
      - BP
      - 0
      - 0
      - 0
      - BP
      - BP
      - 0
      tile:
      - 0
      - 0
      - 0
      - 0
      - 0
      - 0
      - 0
      - 0
      - CS:BP:RP
      - 0
      - 0
      - 0
      - 0
      - 0
      - 0
      - CS:BP:RP
      - 0
      - 0
      - 0
      - 0
      - 0
      - 0
      - 0
      - 0
      - 0
      - 0
      - 0
      - CS:BP:RP
      - 0
      - 0
      - 0
      - 0
      - 0
      - 0
      - 0
      - 0
      item:
      - 0
      - 0
      - 0
      - 0
      - 0
      - 0
      - 0
      - 0
      - 0
      - 0
      - 0
      - 0
      - 0
      - 0
      - 0
      - 0
      - 0
      - 0
      - 0
      - 0
      - 0
      - 0
      - 0
      - 0
      - 0
      - 0
      - 0
      - 0
      - 0
      - 0
      - 0
      - 0
      - 0
      - 0
      - 0
      - 0
      path: 
    state:
      levelName: Bubblies
      levelNumber: 21
      tempLock: 1
      objectiveStates:
      - complete: 0
      - complete: 0
      - complete: 0
    asset: {fileID: 4900000, guid: 1cfe5a42b3a84497d90f26abf646e99d, type: 3}
    order: 0
    path: TileSwap_6x6_Bubblies.json
  - data:
      name: Compound Path
      collection: TileSwap
      id: 22
      rows: 6
      columns: 6
      difficulty: 1
      isSpecialTutorial: 0
      specialTutorialIndex: 0
      tutorial: []
      objectives:
      - solution:
        - row: 0
          column: 3
          text: 
        - row: 3
          column: 1
          text: 
        - row: 4
          column: 1
          text: 
        - row: 4
          column: 2
          text: 
        - row: 2
          column: 2
          text: 
        - row: 3
          column: 2
          text: 
        - row: 5
          column: 2
          text: 
        - row: 4
          column: 2
          text: 
        - row: 4
          column: 3
          text: 
        - row: 1
          column: 3
          text: 
        - row: 2
          column: 3
          text: 
        - row: 3
          column: 3
          text: 
        - row: 3
          column: 4
          text: 
        - row: 3
          column: 5
          text: 
      - solution:
        - row: 0
          column: 3
          text: 
        - row: 5
          column: 4
          text: 
        - row: 4
          column: 4
          text: 
        - row: 4
          column: 1
          text: 
        - row: 4
          column: 2
          text: 
        - row: 4
          column: 3
          text: 
        - row: 3
          column: 1
          text: 
        - row: 2
          column: 2
          text: 
        - row: 1
          column: 3
          text: 
        - row: 3
          column: 2
          text: 
        - row: 3
          column: 3
          text: 
        - row: 3
          column: 4
          text: 
        - row: 1
          column: 4
          text: 
        - row: 2
          column: 4
          text: 
      - solution:
        - row: 2
          column: 2
          text: 
        - row: 0
          column: 3
          text: 
        - row: 1
          column: 3
          text: 
        - row: 3
          column: 4
          text: 
        - row: 3
          column: 5
          text: 
        - row: 3
          column: 4
          text: 
        - row: 4
          column: 2
          text: 
        - row: 4
          column: 3
          text: 
        - row: 4
          column: 1
          text: 
        - row: 2
          column: 3
          text: 
        - row: 4
          column: 2
          text: 
        - row: 3
          column: 3
          text: 
        - row: 3
          column: 2
          text: 
        - row: 3
          column: 1
          text: 
      piece:
      - 0
      - 0
      - GP
      - 0
      - GP
      - 0
      - 0
      - 0
      - GP
      - 0
      - GP
      - 0
      - 0
      - 0
      - 0
      - BP
      - GP
      - GP
      - GP
      - 0
      - BP
      - 0
      - 0
      - BP
      - BP
      - 0
      - 0
      - BP
      - BP
      - 0
      - 0
      - BP
      - BP
      - BP
      - 0
      - 0
      tile:
      - 0
      - 0
      - 0
      - 0
      - 0
      - 0
      - 0
      - 0
      - 0
      - 0
      - 0
      - 0
      - 0
      - 0
      - 0
      - CS:GP:BP
      - 0
      - 0
      - 0
      - 0
      - CS:GP:BP
      - 0
      - CS:GP:BP
      - 0
      - 0
      - 0
      - 0
      - 0
      - 0
      - 0
      - 0
      - 0
      - 0
      - 0
      - 0
      - 0
      item:
      - 0
      - 0
      - 0
      - 0
      - 0
      - 0
      - 0
      - 0
      - 0
      - 0
      - 0
      - 0
      - 0
      - 0
      - 0
      - 0
      - 0
      - 0
      - 0
      - 0
      - 0
      - 0
      - 0
      - 0
      - 0
      - 0
      - 0
      - 0
      - 0
      - 0
      - 0
      - 0
      - 0
      - 0
      - 0
      - 0
      path: 
    state:
      levelName: Compound Path
      levelNumber: 22
      tempLock: 1
      objectiveStates:
      - complete: 0
      - complete: 0
      - complete: 0
    asset: {fileID: 4900000, guid: 544e1f544cf5b4da19c927c643f59851, type: 3}
    order: 0
    path: TileSwap_6x6_CompoundPath.json
  - data:
      name: Left Brain, Right Brain
      collection: TileSwap
      id: 23
      rows: 6
      columns: 6
      difficulty: 1
      isSpecialTutorial: 0
      specialTutorialIndex: 0
      tutorial: []
      objectives:
      - solution:
        - row: 1
          column: 1
          text: 
        - row: 1
          column: 0
          text: 
        - row: 1
          column: 2
          text: 
        - row: 2
          column: 2
          text: 
        - row: 2
          column: 0
          text: 
        - row: 2
          column: 1
          text: 
        - row: 2
          column: 2
          text: 
        - row: 1
          column: 4
          text: 
        - row: 1
          column: 3
          text: 
        - row: 2
          column: 3
          text: 
        - row: 3
          column: 3
          text: 
        - row: 3
          column: 4
          text: 
        - row: 3
          column: 5
          text: 
      - solution:
        - row: 1
          column: 4
          text: 
        - row: 1
          column: 5
          text: 
        - row: 1
          column: 3
          text: 
        - row: 2
          column: 5
          text: 
        - row: 3
          column: 5
          text: 
        - row: 3
          column: 4
          text: 
        - row: 1
          column: 1
          text: 
        - row: 1
          column: 0
          text: 
        - row: 1
          column: 2
          text: 
        - row: 2
          column: 0
          text: 
        - row: 2
          column: 2
          text: 
        - row: 2
          column: 1
          text: 
        - row: 3
          column: 3
          text: 
        - row: 2
          column: 3
          text: 
        - row: 2
          column: 2
          text: 
      - solution:
        - row: 4
          column: 4
          text: 
        - row: 4
          column: 3
          text: 
        - row: 1
          column: 1
          text: 
        - row: 1
          column: 0
          text: 
        - row: 1
          column: 2
          text: 
        - row: 2
          column: 2
          text: 
        - row: 2
          column: 0
          text: 
        - row: 2
          column: 1
          text: 
        - row: 2
          column: 2
          text: 
        - row: 3
          column: 4
          text: 
        - row: 3
          column: 3
          text: 
        - row: 2
          column: 3
          text: 
        - row: 2
          column: 4
          text: 
        - row: 1
          column: 4
          text: 
        - row: 0
          column: 4
          text: 
      piece:
      - 0
      - BP
      - BP
      - RP
      - RP
      - 0
      - 0
      - 0
      - 0
      - 0
      - 0
      - 0
      - BP
      - RP
      - BP
      - RP
      - RP
      - RP
      - BP
      - BP
      - BP
      - RP
      - 0
      - RP
      - 0
      - 0
      - 0
      - RP
      - 0
      - RP
      - 0
      - 0
      - 0
      - 0
      - 0
      - 0
      tile:
      - 0
      - 0
      - 0
      - 0
      - 0
      - 0
      - 0
      - 0
      - 0
      - 0
      - 0
      - 0
      - 0
      - CS:BP:RP
      - 0
      - 0
      - 0
      - 0
      - 0
      - 0
      - 0
      - 0
      - 0
      - 0
      - 0
      - 0
      - 0
      - 0
      - 0
      - 0
      - 0
      - 0
      - 0
      - 0
      - 0
      - 0
      item:
      - 0
      - 0
      - 0
      - 0
      - 0
      - 0
      - 0
      - 0
      - 0
      - 0
      - 0
      - 0
      - 0
      - 0
      - 0
      - 0
      - 0
      - 0
      - 0
      - 0
      - 0
      - 0
      - 0
      - 0
      - 0
      - 0
      - 0
      - 0
      - 0
      - 0
      - 0
      - 0
      - 0
      - 0
      - 0
      - 0
      path: 
    state:
      levelName: Left Brain, Right Brain
      levelNumber: 23
      tempLock: 1
      objectiveStates:
      - complete: 0
      - complete: 0
      - complete: 0
    asset: {fileID: 4900000, guid: 4a7b74082a45b48ad9b12d31fda26238, type: 3}
    order: 0
    path: TileSwap_6x6_LeftBrain,RightBrain.json
  - data:
      name: Azulene is Blue
      collection: TileSwap
      id: 24
      rows: 5
      columns: 5
      difficulty: 2
      isSpecialTutorial: 0
      specialTutorialIndex: 0
      tutorial: []
      objectives:
      - solution:
        - row: 1
          column: 3
          text: 
        - row: 3
          column: 3
          text: 
        - row: 3
          column: 1
          text: 
        - row: 1
          column: 1
          text: 
        - row: 2
          column: 1
          text: 
        - row: 3
          column: 2
          text: 
        - row: 2
          column: 3
          text: 
        - row: 2
          column: 2
          text: 
        - row: 1
          column: 2
          text: 
      - solution:
        - row: 1
          column: 3
          text: 
        - row: 1
          column: 1
          text: 
        - row: 1
          column: 2
          text: 
        - row: 3
          column: 3
          text: 
        - row: 2
          column: 3
          text: 
        - row: 2
          column: 2
          text: 
        - row: 3
          column: 1
          text: 
        - row: 4
          column: 1
          text: 
        - row: 2
          column: 1
          text: 
        - row: 3
          column: 1
          text: 
      - solution:
        - row: 3
          column: 3
          text: 
        - row: 2
          column: 3
          text: 
        - row: 1
          column: 1
          text: 
        - row: 2
          column: 1
          text: 
        - row: 2
          column: 2
          text: 
        - row: 1
          column: 3
          text: 
        - row: 3
          column: 2
          text: 
        - row: 1
          column: 2
          text: 
        - row: 2
          column: 2
          text: 
        - row: 3
          column: 1
          text: 
        - row: 3
          column: 2
          text: 
      piece:
      - 0
      - CSP:GP:BP
      - CSP:BP:GP
      - CSP:BP:GP
      - 0
      - CSP:GP:BP
      - 0
      - 0
      - 0
      - CSP:BP:GP
      - CSP:BP:GP
      - 0
      - 0
      - 0
      - CSP:BP:GP
      - CSP:BP:GP
      - 0
      - 0
      - 0
      - CSP:GP:BP
      - 0
      - CSP:BP:GP
      - CSP:GP:BP
      - CSP:GP:BP
      - 0
      tile:
      - 0
      - 0
      - 0
      - 0
      - 0
      - 0
      - 0
      - 0
      - 0
      - 0
      - 0
      - 0
      - 0
      - 0
      - 0
      - 0
      - 0
      - 0
      - 0
      - 0
      - 0
      - 0
      - 0
      - 0
      - 0
      item:
      - 0
      - 0
      - 0
      - 0
      - 0
      - 0
      - 0
      - 0
      - 0
      - 0
      - 0
      - 0
      - 0
      - 0
      - 0
      - 0
      - 0
      - 0
      - 0
      - 0
      - 0
      - 0
      - 0
      - 0
      - 0
      path: 
    state:
      levelName: Azulene is Blue
      levelNumber: 24
      tempLock: 1
      objectiveStates:
      - complete: 0
      - complete: 0
      - complete: 0
    asset: {fileID: 4900000, guid: 187e3fbc5aaaf409ebbbd46bfb7fd08d, type: 3}
    order: 0
    path: TileSwap_5x5_AzuleneisBlue.json
  - data:
      name: Litmus Test
      collection: TileSwap
      id: 25
      rows: 5
      columns: 5
      difficulty: 3
      isSpecialTutorial: 0
      specialTutorialIndex: 0
      tutorial: []
      objectives:
      - solution:
        - row: 1
          column: 3
          text: 
        - row: 4
          column: 4
          text: 
        - row: 3
          column: 4
          text: 
        - row: 3
          column: 3
          text: 
        - row: 3
          column: 2
          text: 
        - row: 2
          column: 2
          text: 
        - row: 3
          column: 1
          text: 
        - row: 1
          column: 1
          text: 
        - row: 0
          column: 1
          text: 
        - row: 1
          column: 2
          text: 
        - row: 1
          column: 1
          text: 
        - row: 3
          column: 2
          text: 
        - row: 2
          column: 1
          text: 
        - row: 2
          column: 2
          text: 
      - solution:
        - row: 1
          column: 3
          text: 
        - row: 1
          column: 2
          text: 
        - row: 3
          column: 2
          text: 
        - row: 1
          column: 1
          text: 
        - row: 2
          column: 1
          text: 
        - row: 2
          column: 2
          text: 
        - row: 1
          column: 2
          text: 
        - row: 3
          column: 3
          text: 
        - row: 2
          column: 3
          text: 
        - row: 2
          column: 2
          text: 
        - row: 3
          column: 1
          text: 
        - row: 3
          column: 2
          text: 
      - solution:
        - row: 4
          column: 0
          text: 
        - row: 4
          column: 1
          text: 
        - row: 3
          column: 2
          text: 
        - row: 3
          column: 1
          text: 
        - row: 2
          column: 1
          text: 
        - row: 3
          column: 3
          text: 
        - row: 2
          column: 3
          text: 
        - row: 2
          column: 2
          text: 
        - row: 1
          column: 2
          text: 
        - row: 1
          column: 1
          text: 
        - row: 1
          column: 3
          text: 
        - row: 1
          column: 2
          text: 
      piece:
      - 0
      - CSP:GP:BP
      - CSP:BP:GP
      - CSP:BP:GP
      - 0
      - CSP:GP:BP
      - 0
      - BP
      - 0
      - CSP:BP:GP
      - CSP:BP:GP
      - CSP:GP:BP
      - BP
      - CSP:GP:BP
      - CSP:BP:GP
      - CSP:BP:GP
      - CSP:BP:GP
      - 0
      - CSP:BP:GP
      - CSP:GP:BP
      - 0
      - CSP:BP:GP
      - CSP:GP:BP
      - CSP:GP:BP
      - 0
      tile:
      - 0
      - 0
      - 0
      - 0
      - 0
      - 0
      - 0
      - 0
      - 0
      - 0
      - 0
      - 0
      - 0
      - 0
      - 0
      - 0
      - 0
      - 0
      - 0
      - 0
      - 0
      - 0
      - 0
      - 0
      - 0
      item:
      - 0
      - 0
      - 0
      - 0
      - 0
      - 0
      - 0
      - 0
      - 0
      - 0
      - 0
      - 0
      - 0
      - 0
      - 0
      - 0
      - 0
      - 0
      - 0
      - 0
      - 0
      - 0
      - 0
      - 0
      - 0
      path: 
    state:
      levelName: Litmus Test
      levelNumber: 25
      tempLock: 1
      objectiveStates:
      - complete: 0
      - complete: 0
      - complete: 0
    asset: {fileID: 4900000, guid: 5bd1c4c7b8027414ca0f2e423764f380, type: 3}
    order: 0
    path: TileSwap_5x5_LitmusTest.json
