%YAML 1.1
%TAG !u! tag:unity3d.com,2011:
--- !u!114 &11400000
MonoBehaviour:
  m_ObjectHideFlags: 0
  m_PrefabParentObject: {fileID: 0}
  m_PrefabInternal: {fileID: 0}
  m_GameObject: {fileID: 0}
  m_Enabled: 1
  m_EditorHideFlags: 0
  m_Script: {fileID: 11500000, guid: 34404cb99b59bb543805a55e3c469d61, type: 3}
  m_Name: Green
  m_EditorClassIdentifier: 
  editorConfirmations: 0
  animations:
  - speedRatio: 1
    loop: 1
    frameToLoop: 0
    frameDatas:
    - sprite: {fileID: 21300600, guid: 27a67724b0f024b22a2364521d0a944f, type: 3}
      time: 0.1
      eventEnabled: 0
      eventName: 
    - sprite: {fileID: 21300602, guid: 27a67724b0f024b22a2364521d0a944f, type: 3}
      time: 0.1
      eventEnabled: 0
      eventName: 
    - sprite: {fileID: 21300604, guid: 27a67724b0f024b22a2364521d0a944f, type: 3}
      time: 0.1
      eventEnabled: 0
      eventName: 
    name: Green_OnInit
    selectedIndex: 1
    newFramesTime: 0.1
  - speedRatio: 1
    loop: 0
    frameToLoop: 0
    frameDatas:
    - sprite: {fileID: 21300606, guid: 27a67724b0f024b22a2364521d0a944f, type: 3}
      time: 0.1
      eventEnabled: 0
      eventName: 
    - sprite: {fileID: 21300608, guid: 27a67724b0f024b22a2364521d0a944f, type: 3}
      time: 0.1
      eventEnabled: 0
      eventName: 
    - sprite: {fileID: 21300610, guid: 27a67724b0f024b22a2364521d0a944f, type: 3}
      time: 0.1
      eventEnabled: 0
      eventName: 
    - sprite: {fileID: 21300612, guid: 27a67724b0f024b22a2364521d0a944f, type: 3}
      time: 0.1
      eventEnabled: 0
      eventName: 
    - sprite: {fileID: 21300614, guid: 27a67724b0f024b22a2364521d0a944f, type: 3}
      time: 0.1
      eventEnabled: 0
      eventName: 
    - sprite: {fileID: 21300616, guid: 27a67724b0f024b22a2364521d0a944f, type: 3}
      time: 0.1
      eventEnabled: 0
      eventName: 
    - sprite: {fileID: 21300618, guid: 27a67724b0f024b22a2364521d0a944f, type: 3}
      time: 0.1
      eventEnabled: 0
      eventName: 
    - sprite: {fileID: 21300620, guid: 27a67724b0f024b22a2364521d0a944f, type: 3}
      time: 0.1
      eventEnabled: 0
      eventName: 
    - sprite: {fileID: 21300622, guid: 27a67724b0f024b22a2364521d0a944f, type: 3}
      time: 0.1
      eventEnabled: 0
      eventName: 
    - sprite: {fileID: 21300624, guid: 27a67724b0f024b22a2364521d0a944f, type: 3}
      time: 0.1
      eventEnabled: 0
      eventName: 
    - sprite: {fileID: 21300626, guid: 27a67724b0f024b22a2364521d0a944f, type: 3}
      time: 0.1
      eventEnabled: 0
      eventName: 
    - sprite: {fileID: 21300628, guid: 27a67724b0f024b22a2364521d0a944f, type: 3}
      time: 0.1
      eventEnabled: 0
      eventName: 
    - sprite: {fileID: 21300630, guid: 27a67724b0f024b22a2364521d0a944f, type: 3}
      time: 0.1
      eventEnabled: 0
      eventName: 
    - sprite: {fileID: 21300632, guid: 27a67724b0f024b22a2364521d0a944f, type: 3}
      time: 0.1
      eventEnabled: 0
      eventName: 
    - sprite: {fileID: 21300634, guid: 27a67724b0f024b22a2364521d0a944f, type: 3}
      time: 0.1
      eventEnabled: 0
      eventName: 
    name: Green_OnSpawn
    selectedIndex: 3
    newFramesTime: 0.1
  - speedRatio: 1
    loop: 1
    frameToLoop: 0
    frameDatas:
    - sprite: {fileID: 21300028, guid: 27a67724b0f024b22a2364521d0a944f, type: 3}
      time: 0.1
      eventEnabled: 0
      eventName: 
    - sprite: {fileID: 21300030, guid: 27a67724b0f024b22a2364521d0a944f, type: 3}
      time: 0.1
      eventEnabled: 0
      eventName: 
    - sprite: {fileID: 21300032, guid: 27a67724b0f024b22a2364521d0a944f, type: 3}
      time: 0.1
      eventEnabled: 0
      eventName: 
    - sprite: {fileID: 21300034, guid: 27a67724b0f024b22a2364521d0a944f, type: 3}
      time: 0.1
      eventEnabled: 0
      eventName: 
    name: Green_OnIdleAction_None
    selectedIndex: 3
    newFramesTime: 0.1
  - speedRatio: 1
    loop: 1
    frameToLoop: 0
    frameDatas:
    - sprite: {fileID: 21300202, guid: 27a67724b0f024b22a2364521d0a944f, type: 3}
      time: 0.1
      eventEnabled: 0
      eventName: 
    - sprite: {fileID: 21300526, guid: 27a67724b0f024b22a2364521d0a944f, type: 3}
      time: 0.1
      eventEnabled: 0
      eventName: 
    - sprite: {fileID: 21300206, guid: 27a67724b0f024b22a2364521d0a944f, type: 3}
      time: 0.1
      eventEnabled: 0
      eventName: 
    - sprite: {fileID: 21300208, guid: 27a67724b0f024b22a2364521d0a944f, type: 3}
      time: 0.1
      eventEnabled: 0
      eventName: 
    - sprite: {fileID: 21300210, guid: 27a67724b0f024b22a2364521d0a944f, type: 3}
      time: 0.1
      eventEnabled: 0
      eventName: 
    - sprite: {fileID: 21300212, guid: 27a67724b0f024b22a2364521d0a944f, type: 3}
      time: 0.1
      eventEnabled: 0
      eventName: 
    - sprite: {fileID: 21300214, guid: 27a67724b0f024b22a2364521d0a944f, type: 3}
      time: 0.1
      eventEnabled: 0
      eventName: 
    - sprite: {fileID: 21300216, guid: 27a67724b0f024b22a2364521d0a944f, type: 3}
      time: 0.1
      eventEnabled: 0
      eventName: 
    name: Green_OnPressed_None
    selectedIndex: 2
    newFramesTime: 0.1
  - speedRatio: 1
    loop: 0
    frameToLoop: 0
    frameDatas:
    - sprite: {fileID: 21300366, guid: 27a67724b0f024b22a2364521d0a944f, type: 3}
      time: 0.1
      eventEnabled: 0
      eventName: 
    - sprite: {fileID: 21300368, guid: 27a67724b0f024b22a2364521d0a944f, type: 3}
      time: 0.1
      eventEnabled: 0
      eventName: 
    - sprite: {fileID: 21300370, guid: 27a67724b0f024b22a2364521d0a944f, type: 3}
      time: 0.1
      eventEnabled: 0
      eventName: 
    - sprite: {fileID: 21300372, guid: 27a67724b0f024b22a2364521d0a944f, type: 3}
      time: 0.1
      eventEnabled: 0
      eventName: 
    - sprite: {fileID: 21300374, guid: 27a67724b0f024b22a2364521d0a944f, type: 3}
      time: 0.1
      eventEnabled: 0
      eventName: 
    - sprite: {fileID: 21300376, guid: 27a67724b0f024b22a2364521d0a944f, type: 3}
      time: 0.1
      eventEnabled: 0
      eventName: 
    - sprite: {fileID: 21300378, guid: 27a67724b0f024b22a2364521d0a944f, type: 3}
      time: 0.1
      eventEnabled: 0
      eventName: 
    - sprite: {fileID: 21300380, guid: 27a67724b0f024b22a2364521d0a944f, type: 3}
      time: 0.1
      eventEnabled: 0
      eventName: 
    - sprite: {fileID: 21300382, guid: 27a67724b0f024b22a2364521d0a944f, type: 3}
      time: 0.1
      eventEnabled: 0
      eventName: 
    - sprite: {fileID: 21300384, guid: 27a67724b0f024b22a2364521d0a944f, type: 3}
      time: 0.1
      eventEnabled: 0
      eventName: 
    - sprite: {fileID: 21300386, guid: 27a67724b0f024b22a2364521d0a944f, type: 3}
      time: 0.1
      eventEnabled: 0
      eventName: 
    - sprite: {fileID: 21300388, guid: 27a67724b0f024b22a2364521d0a944f, type: 3}
      time: 0.1
      eventEnabled: 0
      eventName: 
    - sprite: {fileID: 21300390, guid: 27a67724b0f024b22a2364521d0a944f, type: 3}
      time: 0.1
      eventEnabled: 0
      eventName: 
    name: Green_OnCombine
    selectedIndex: 12
    newFramesTime: 0.1
  - speedRatio: 1
    loop: 1
    frameToLoop: 0
    frameDatas:
    - sprite: {fileID: 21300528, guid: 27a67724b0f024b22a2364521d0a944f, type: 3}
      time: 0.1
      eventEnabled: 0
      eventName: 
    - sprite: {fileID: 21300530, guid: 27a67724b0f024b22a2364521d0a944f, type: 3}
      time: 0.1
      eventEnabled: 0
      eventName: 
    - sprite: {fileID: 21300532, guid: 27a67724b0f024b22a2364521d0a944f, type: 3}
      time: 0.1
      eventEnabled: 0
      eventName: 
    name: Green_OnSlide_Up
    selectedIndex: 2
    newFramesTime: 0.1
  - speedRatio: 1
    loop: 0
    frameToLoop: 0
    frameDatas:
    - sprite: {fileID: 21300534, guid: 27a67724b0f024b22a2364521d0a944f, type: 3}
      time: 0.1
      eventEnabled: 0
      eventName: 
    - sprite: {fileID: 21300536, guid: 27a67724b0f024b22a2364521d0a944f, type: 3}
      time: 0.1
      eventEnabled: 0
      eventName: 
    - sprite: {fileID: 21300538, guid: 27a67724b0f024b22a2364521d0a944f, type: 3}
      time: 0.1
      eventEnabled: 0
      eventName: 
    name: Green_OnSlide_Right
    selectedIndex: 2
    newFramesTime: 0.1
  - speedRatio: 1
    loop: 1
    frameToLoop: 0
    frameDatas:
    - sprite: {fileID: 21300546, guid: 27a67724b0f024b22a2364521d0a944f, type: 3}
      time: 0.1
      eventEnabled: 0
      eventName: 
    - sprite: {fileID: 21300548, guid: 27a67724b0f024b22a2364521d0a944f, type: 3}
      time: 0.1
      eventEnabled: 0
      eventName: 
    - sprite: {fileID: 21300550, guid: 27a67724b0f024b22a2364521d0a944f, type: 3}
      time: 0.1
      eventEnabled: 0
      eventName: 
    name: Green_OnSlide_Down
    selectedIndex: 2
    newFramesTime: 0.1
  - speedRatio: 1
    loop: 1
    frameToLoop: 0
    frameDatas:
    - sprite: {fileID: 21300540, guid: 27a67724b0f024b22a2364521d0a944f, type: 3}
      time: 0.1
      eventEnabled: 0
      eventName: 
    - sprite: {fileID: 21300542, guid: 27a67724b0f024b22a2364521d0a944f, type: 3}
      time: 0.1
      eventEnabled: 0
      eventName: 
    - sprite: {fileID: 21300544, guid: 27a67724b0f024b22a2364521d0a944f, type: 3}
      time: 0.1
      eventEnabled: 0
      eventName: 
    name: Green_OnSlide_Left
    selectedIndex: 2
    newFramesTime: 0.1
  - speedRatio: 1
    loop: 0
    frameToLoop: 0
    frameDatas:
    - sprite: {fileID: 21300512, guid: 27a67724b0f024b22a2364521d0a944f, type: 3}
      time: 0.1
      eventEnabled: 0
      eventName: 
    - sprite: {fileID: 21300028, guid: 27a67724b0f024b22a2364521d0a944f, type: 3}
      time: 0.1
      eventEnabled: 0
      eventName: 
    - sprite: {fileID: 21300030, guid: 27a67724b0f024b22a2364521d0a944f, type: 3}
      time: 0.1
      eventEnabled: 0
      eventName: 
    - sprite: {fileID: 21300032, guid: 27a67724b0f024b22a2364521d0a944f, type: 3}
      time: 0.1
      eventEnabled: 0
      eventName: 
    - sprite: {fileID: 21300034, guid: 27a67724b0f024b22a2364521d0a944f, type: 3}
      time: 0.1
      eventEnabled: 0
      eventName: 
    name: Green_OnStart_None
    selectedIndex: 4
    newFramesTime: 0.1
  - speedRatio: 1
    loop: 1
    frameToLoop: 0
    frameDatas:
    - sprite: {fileID: 21301066, guid: ba0e1814e5f9b41468cea3f82f8efc66, type: 3}
      time: 0.1
      eventEnabled: 0
      eventName: 
    - sprite: {fileID: 21301044, guid: ba0e1814e5f9b41468cea3f82f8efc66, type: 3}
      time: 0.1
      eventEnabled: 0
      eventName: 
    - sprite: {fileID: 21301046, guid: ba0e1814e5f9b41468cea3f82f8efc66, type: 3}
      time: 0.1
      eventEnabled: 0
      eventName: 
    - sprite: {fileID: 21301048, guid: ba0e1814e5f9b41468cea3f82f8efc66, type: 3}
      time: 0.1
      eventEnabled: 0
      eventName: 
    - sprite: {fileID: 21301050, guid: ba0e1814e5f9b41468cea3f82f8efc66, type: 3}
      time: 0.1
      eventEnabled: 0
      eventName: 
    - sprite: {fileID: 21301052, guid: ba0e1814e5f9b41468cea3f82f8efc66, type: 3}
      time: 0.1
      eventEnabled: 0
      eventName: 
    - sprite: {fileID: 21301054, guid: ba0e1814e5f9b41468cea3f82f8efc66, type: 3}
      time: 0.1
      eventEnabled: 0
      eventName: 
    - sprite: {fileID: 21301056, guid: ba0e1814e5f9b41468cea3f82f8efc66, type: 3}
      time: 0.1
      eventEnabled: 0
      eventName: 
    - sprite: {fileID: 21301058, guid: ba0e1814e5f9b41468cea3f82f8efc66, type: 3}
      time: 0.1
      eventEnabled: 0
      eventName: 
    - sprite: {fileID: 21301060, guid: ba0e1814e5f9b41468cea3f82f8efc66, type: 3}
      time: 0.1
      eventEnabled: 0
      eventName: 
    - sprite: {fileID: 21301062, guid: ba0e1814e5f9b41468cea3f82f8efc66, type: 3}
      time: 0.1
      eventEnabled: 0
      eventName: 
    - sprite: {fileID: 21301064, guid: ba0e1814e5f9b41468cea3f82f8efc66, type: 3}
      time: 0.1
      eventEnabled: 0
      eventName: 
    name: Green_OnStart_One
    selectedIndex: 0
    newFramesTime: 0.1
  - speedRatio: 1
    loop: 1
    frameToLoop: 0
    frameDatas:
    - sprite: {fileID: 21300966, guid: ba0e1814e5f9b41468cea3f82f8efc66, type: 3}
      time: 0.1
      eventEnabled: 0
      eventName: 
    - sprite: {fileID: 21300968, guid: ba0e1814e5f9b41468cea3f82f8efc66, type: 3}
      time: 0.1
      eventEnabled: 0
      eventName: 
    - sprite: {fileID: 21300970, guid: ba0e1814e5f9b41468cea3f82f8efc66, type: 3}
      time: 0.1
      eventEnabled: 0
      eventName: 
    - sprite: {fileID: 21300972, guid: ba0e1814e5f9b41468cea3f82f8efc66, type: 3}
      time: 0.1
      eventEnabled: 0
      eventName: 
    - sprite: {fileID: 21300974, guid: ba0e1814e5f9b41468cea3f82f8efc66, type: 3}
      time: 0.1
      eventEnabled: 0
      eventName: 
    - sprite: {fileID: 21300976, guid: ba0e1814e5f9b41468cea3f82f8efc66, type: 3}
      time: 0.1
      eventEnabled: 0
      eventName: 
    - sprite: {fileID: 21300978, guid: ba0e1814e5f9b41468cea3f82f8efc66, type: 3}
      time: 0.1
      eventEnabled: 0
      eventName: 
    - sprite: {fileID: 21300980, guid: ba0e1814e5f9b41468cea3f82f8efc66, type: 3}
      time: 0.1
      eventEnabled: 0
      eventName: 
    - sprite: {fileID: 21300982, guid: ba0e1814e5f9b41468cea3f82f8efc66, type: 3}
      time: 0.1
      eventEnabled: 0
      eventName: 
    - sprite: {fileID: 21300984, guid: ba0e1814e5f9b41468cea3f82f8efc66, type: 3}
      time: 0.1
      eventEnabled: 0
      eventName: 
    - sprite: {fileID: 21300986, guid: ba0e1814e5f9b41468cea3f82f8efc66, type: 3}
      time: 0.1
      eventEnabled: 0
      eventName: 
    - sprite: {fileID: 21300988, guid: ba0e1814e5f9b41468cea3f82f8efc66, type: 3}
      time: 0.1
      eventEnabled: 0
      eventName: 
    name: Green_OnStart_Two
    selectedIndex: 11
    newFramesTime: 0.1
  - speedRatio: 1
    loop: 0
    frameToLoop: 0
    frameDatas:
    - sprite: {fileID: 21300888, guid: ba0e1814e5f9b41468cea3f82f8efc66, type: 3}
      time: 0.1
      eventEnabled: 0
      eventName: 
    - sprite: {fileID: 21300890, guid: ba0e1814e5f9b41468cea3f82f8efc66, type: 3}
      time: 0.1
      eventEnabled: 0
      eventName: 
    - sprite: {fileID: 21300892, guid: ba0e1814e5f9b41468cea3f82f8efc66, type: 3}
      time: 0.1
      eventEnabled: 0
      eventName: 
    - sprite: {fileID: 21300894, guid: ba0e1814e5f9b41468cea3f82f8efc66, type: 3}
      time: 0.1
      eventEnabled: 0
      eventName: 
    - sprite: {fileID: 21300896, guid: ba0e1814e5f9b41468cea3f82f8efc66, type: 3}
      time: 0.1
      eventEnabled: 0
      eventName: 
    - sprite: {fileID: 21300898, guid: ba0e1814e5f9b41468cea3f82f8efc66, type: 3}
      time: 0.1
      eventEnabled: 0
      eventName: 
    - sprite: {fileID: 21300900, guid: ba0e1814e5f9b41468cea3f82f8efc66, type: 3}
      time: 0.1
      eventEnabled: 0
      eventName: 
    - sprite: {fileID: 21300902, guid: ba0e1814e5f9b41468cea3f82f8efc66, type: 3}
      time: 0.1
      eventEnabled: 0
      eventName: 
    - sprite: {fileID: 21300904, guid: ba0e1814e5f9b41468cea3f82f8efc66, type: 3}
      time: 0.1
      eventEnabled: 0
      eventName: 
    - sprite: {fileID: 21300906, guid: ba0e1814e5f9b41468cea3f82f8efc66, type: 3}
      time: 0.1
      eventEnabled: 0
      eventName: 
    - sprite: {fileID: 21300908, guid: ba0e1814e5f9b41468cea3f82f8efc66, type: 3}
      time: 0.1
      eventEnabled: 0
      eventName: 
    - sprite: {fileID: 21300910, guid: ba0e1814e5f9b41468cea3f82f8efc66, type: 3}
      time: 0.1
      eventEnabled: 0
      eventName: 
    name: Green_OnStart_Three
    selectedIndex: 11
    newFramesTime: 0.1
  - speedRatio: 1
    loop: 2
    frameToLoop: 0
    frameDatas:
    - sprite: {fileID: 21300508, guid: 27a67724b0f024b22a2364521d0a944f, type: 3}
      time: 0.1
      eventEnabled: 0
      eventName: 
    name: Green_OnIdle_None
    selectedIndex: 0
    newFramesTime: 0.1
  - speedRatio: 1
    loop: 1
    frameToLoop: 0
    frameDatas:
    - sprite: {fileID: 21301066, guid: ba0e1814e5f9b41468cea3f82f8efc66, type: 3}
      time: 0.1
      eventEnabled: 0
      eventName: 
    name: Green_OnIdle_One
    selectedIndex: 0
    newFramesTime: 0.1
  - speedRatio: 1
    loop: 1
    frameToLoop: 0
    frameDatas:
    - sprite: {fileID: 21300988, guid: ba0e1814e5f9b41468cea3f82f8efc66, type: 3}
      time: 0.1
      eventEnabled: 0
      eventName: 
    name: Green_OnIdle_Two
    selectedIndex: 0
    newFramesTime: 0.1
  - speedRatio: 1
    loop: 1
    frameToLoop: 0
    frameDatas:
    - sprite: {fileID: 21300910, guid: ba0e1814e5f9b41468cea3f82f8efc66, type: 3}
      time: 0.1
      eventEnabled: 0
      eventName: 
    name: Green_OnIdle_Three
    selectedIndex: 0
    newFramesTime: 0.1
  - speedRatio: 1
    loop: 1
    frameToLoop: 0
    frameDatas:
    - sprite: {fileID: 21301580, guid: ba0e1814e5f9b41468cea3f82f8efc66, type: 3}
      time: 0.1
      eventEnabled: 0
      eventName: 
    - sprite: {fileID: 21301582, guid: ba0e1814e5f9b41468cea3f82f8efc66, type: 3}
      time: 0.1
      eventEnabled: 0
      eventName: 
    - sprite: {fileID: 21301584, guid: ba0e1814e5f9b41468cea3f82f8efc66, type: 3}
      time: 0.1
      eventEnabled: 0
      eventName: 
    - sprite: {fileID: 21301586, guid: ba0e1814e5f9b41468cea3f82f8efc66, type: 3}
      time: 0.1
      eventEnabled: 0
      eventName: 
    - sprite: {fileID: 21301588, guid: ba0e1814e5f9b41468cea3f82f8efc66, type: 3}
      time: 0.1
      eventEnabled: 0
      eventName: 
    - sprite: {fileID: 21301590, guid: ba0e1814e5f9b41468cea3f82f8efc66, type: 3}
      time: 0.1
      eventEnabled: 0
      eventName: 
    - sprite: {fileID: 21301592, guid: ba0e1814e5f9b41468cea3f82f8efc66, type: 3}
      time: 0.1
      eventEnabled: 0
      eventName: 
    - sprite: {fileID: 21301594, guid: ba0e1814e5f9b41468cea3f82f8efc66, type: 3}
      time: 0.1
      eventEnabled: 0
      eventName: 
    - sprite: {fileID: 21301596, guid: ba0e1814e5f9b41468cea3f82f8efc66, type: 3}
      time: 0.1
      eventEnabled: 0
      eventName: 
    - sprite: {fileID: 21301598, guid: ba0e1814e5f9b41468cea3f82f8efc66, type: 3}
      time: 0.1
      eventEnabled: 0
      eventName: 
    - sprite: {fileID: 21301600, guid: ba0e1814e5f9b41468cea3f82f8efc66, type: 3}
      time: 0.1
      eventEnabled: 0
      eventName: 
    - sprite: {fileID: 21301602, guid: ba0e1814e5f9b41468cea3f82f8efc66, type: 3}
      time: 0.1
      eventEnabled: 0
      eventName: 
    - sprite: {fileID: 21301604, guid: ba0e1814e5f9b41468cea3f82f8efc66, type: 3}
      time: 0.1
      eventEnabled: 0
      eventName: 
    - sprite: {fileID: 21301606, guid: ba0e1814e5f9b41468cea3f82f8efc66, type: 3}
      time: 0.1
      eventEnabled: 0
      eventName: 
    - sprite: {fileID: 21301608, guid: ba0e1814e5f9b41468cea3f82f8efc66, type: 3}
      time: 0.1
      eventEnabled: 0
      eventName: 
    - sprite: {fileID: 21301610, guid: ba0e1814e5f9b41468cea3f82f8efc66, type: 3}
      time: 0.1
      eventEnabled: 0
      eventName: 
    - sprite: {fileID: 21301612, guid: ba0e1814e5f9b41468cea3f82f8efc66, type: 3}
      time: 0.1
      eventEnabled: 0
      eventName: 
    - sprite: {fileID: 21301614, guid: ba0e1814e5f9b41468cea3f82f8efc66, type: 3}
      time: 0.1
      eventEnabled: 0
      eventName: 
    - sprite: {fileID: 21301616, guid: ba0e1814e5f9b41468cea3f82f8efc66, type: 3}
      time: 0.1
      eventEnabled: 0
      eventName: 
    - sprite: {fileID: 21301618, guid: ba0e1814e5f9b41468cea3f82f8efc66, type: 3}
      time: 0.1
      eventEnabled: 0
      eventName: 
    - sprite: {fileID: 21301620, guid: ba0e1814e5f9b41468cea3f82f8efc66, type: 3}
      time: 0.1
      eventEnabled: 0
      eventName: 
    - sprite: {fileID: 21301622, guid: ba0e1814e5f9b41468cea3f82f8efc66, type: 3}
      time: 0.1
      eventEnabled: 0
      eventName: 
    name: Green_OnWin_None
    selectedIndex: 0
    newFramesTime: 0.1
  - speedRatio: 1
    loop: 2
    frameToLoop: 10
    frameDatas:
    - sprite: {fileID: 21301044, guid: ba0e1814e5f9b41468cea3f82f8efc66, type: 3}
      time: 0.1
      eventEnabled: 0
      eventName: 
    - sprite: {fileID: 21301046, guid: ba0e1814e5f9b41468cea3f82f8efc66, type: 3}
      time: 0.1
      eventEnabled: 0
      eventName: 
    - sprite: {fileID: 21301048, guid: ba0e1814e5f9b41468cea3f82f8efc66, type: 3}
      time: 0.1
      eventEnabled: 0
      eventName: 
    - sprite: {fileID: 21301050, guid: ba0e1814e5f9b41468cea3f82f8efc66, type: 3}
      time: 0.1
      eventEnabled: 0
      eventName: 
    - sprite: {fileID: 21301032, guid: ba0e1814e5f9b41468cea3f82f8efc66, type: 3}
      time: 0.1
      eventEnabled: 0
      eventName: 
    - sprite: {fileID: 21301034, guid: ba0e1814e5f9b41468cea3f82f8efc66, type: 3}
      time: 0.1
      eventEnabled: 0
      eventName: 
    - sprite: {fileID: 21301036, guid: ba0e1814e5f9b41468cea3f82f8efc66, type: 3}
      time: 0.1
      eventEnabled: 0
      eventName: 
    - sprite: {fileID: 21301038, guid: ba0e1814e5f9b41468cea3f82f8efc66, type: 3}
      time: 0.1
      eventEnabled: 0
      eventName: 
    - sprite: {fileID: 21301040, guid: ba0e1814e5f9b41468cea3f82f8efc66, type: 3}
      time: 0.1
      eventEnabled: 0
      eventName: 
    - sprite: {fileID: 21301042, guid: ba0e1814e5f9b41468cea3f82f8efc66, type: 3}
      time: 0.1
      eventEnabled: 0
      eventName: 
    - sprite: {fileID: 21300990, guid: ba0e1814e5f9b41468cea3f82f8efc66, type: 3}
      time: 0.1
      eventEnabled: 0
      eventName: 
    - sprite: {fileID: 21300992, guid: ba0e1814e5f9b41468cea3f82f8efc66, type: 3}
      time: 0.1
      eventEnabled: 0
      eventName: 
    - sprite: {fileID: 21300994, guid: ba0e1814e5f9b41468cea3f82f8efc66, type: 3}
      time: 0.1
      eventEnabled: 0
      eventName: 
    - sprite: {fileID: 21300996, guid: ba0e1814e5f9b41468cea3f82f8efc66, type: 3}
      time: 0.1
      eventEnabled: 0
      eventName: 
    - sprite: {fileID: 21300998, guid: ba0e1814e5f9b41468cea3f82f8efc66, type: 3}
      time: 0.1
      eventEnabled: 0
      eventName: 
    - sprite: {fileID: 21301000, guid: ba0e1814e5f9b41468cea3f82f8efc66, type: 3}
      time: 0.1
      eventEnabled: 0
      eventName: 
    - sprite: {fileID: 21301002, guid: ba0e1814e5f9b41468cea3f82f8efc66, type: 3}
      time: 0.1
      eventEnabled: 0
      eventName: 
    - sprite: {fileID: 21301004, guid: ba0e1814e5f9b41468cea3f82f8efc66, type: 3}
      time: 0.1
      eventEnabled: 0
      eventName: 
    - sprite: {fileID: 21301006, guid: ba0e1814e5f9b41468cea3f82f8efc66, type: 3}
      time: 0.1
      eventEnabled: 0
      eventName: 
    - sprite: {fileID: 21301008, guid: ba0e1814e5f9b41468cea3f82f8efc66, type: 3}
      time: 0.1
      eventEnabled: 0
      eventName: 
    - sprite: {fileID: 21301010, guid: ba0e1814e5f9b41468cea3f82f8efc66, type: 3}
      time: 0.1
      eventEnabled: 0
      eventName: 
    - sprite: {fileID: 21301012, guid: ba0e1814e5f9b41468cea3f82f8efc66, type: 3}
      time: 0.1
      eventEnabled: 0
      eventName: 
    - sprite: {fileID: 21301014, guid: ba0e1814e5f9b41468cea3f82f8efc66, type: 3}
      time: 0.1
      eventEnabled: 0
      eventName: 
    - sprite: {fileID: 21301016, guid: ba0e1814e5f9b41468cea3f82f8efc66, type: 3}
      time: 0.1
      eventEnabled: 0
      eventName: 
    - sprite: {fileID: 21301018, guid: ba0e1814e5f9b41468cea3f82f8efc66, type: 3}
      time: 0.1
      eventEnabled: 0
      eventName: 
    - sprite: {fileID: 21301020, guid: ba0e1814e5f9b41468cea3f82f8efc66, type: 3}
      time: 0.1
      eventEnabled: 0
      eventName: 
    - sprite: {fileID: 21301022, guid: ba0e1814e5f9b41468cea3f82f8efc66, type: 3}
      time: 0.1
      eventEnabled: 0
      eventName: 
    - sprite: {fileID: 21301024, guid: ba0e1814e5f9b41468cea3f82f8efc66, type: 3}
      time: 0.1
      eventEnabled: 0
      eventName: 
    - sprite: {fileID: 21301026, guid: ba0e1814e5f9b41468cea3f82f8efc66, type: 3}
      time: 0.1
      eventEnabled: 0
      eventName: 
    - sprite: {fileID: 21301028, guid: ba0e1814e5f9b41468cea3f82f8efc66, type: 3}
      time: 0.1
      eventEnabled: 0
      eventName: 
    - sprite: {fileID: 21301030, guid: ba0e1814e5f9b41468cea3f82f8efc66, type: 3}
      time: 0.1
      eventEnabled: 0
      eventName: 
    - sprite: {fileID: 21301032, guid: ba0e1814e5f9b41468cea3f82f8efc66, type: 3}
      time: 0.1
      eventEnabled: 0
      eventName: 
    - sprite: {fileID: 21301034, guid: ba0e1814e5f9b41468cea3f82f8efc66, type: 3}
      time: 0.1
      eventEnabled: 0
      eventName: 
    - sprite: {fileID: 21301036, guid: ba0e1814e5f9b41468cea3f82f8efc66, type: 3}
      time: 0.1
      eventEnabled: 0
      eventName: 
    - sprite: {fileID: 21301038, guid: ba0e1814e5f9b41468cea3f82f8efc66, type: 3}
      time: 0.1
      eventEnabled: 0
      eventName: 
    - sprite: {fileID: 21301040, guid: ba0e1814e5f9b41468cea3f82f8efc66, type: 3}
      time: 0.1
      eventEnabled: 0
      eventName: 
    - sprite: {fileID: 21301042, guid: ba0e1814e5f9b41468cea3f82f8efc66, type: 3}
      time: 0.1
      eventEnabled: 0
      eventName: 
    name: Green_OnWin_One
    selectedIndex: 10
    newFramesTime: 0.1
  - speedRatio: 1
    loop: 2
    frameToLoop: 11
    frameDatas:
    - sprite: {fileID: 21300966, guid: ba0e1814e5f9b41468cea3f82f8efc66, type: 3}
      time: 0.1
      eventEnabled: 0
      eventName: 
    - sprite: {fileID: 21300968, guid: ba0e1814e5f9b41468cea3f82f8efc66, type: 3}
      time: 0.1
      eventEnabled: 0
      eventName: 
    - sprite: {fileID: 21300970, guid: ba0e1814e5f9b41468cea3f82f8efc66, type: 3}
      time: 0.1
      eventEnabled: 0
      eventName: 
    - sprite: {fileID: 21300972, guid: ba0e1814e5f9b41468cea3f82f8efc66, type: 3}
      time: 0.1
      eventEnabled: 0
      eventName: 
    - sprite: {fileID: 21300974, guid: ba0e1814e5f9b41468cea3f82f8efc66, type: 3}
      time: 0.1
      eventEnabled: 0
      eventName: 
    - sprite: {fileID: 21300954, guid: ba0e1814e5f9b41468cea3f82f8efc66, type: 3}
      time: 0.1
      eventEnabled: 0
      eventName: 
    - sprite: {fileID: 21300956, guid: ba0e1814e5f9b41468cea3f82f8efc66, type: 3}
      time: 0.1
      eventEnabled: 0
      eventName: 
    - sprite: {fileID: 21300958, guid: ba0e1814e5f9b41468cea3f82f8efc66, type: 3}
      time: 0.1
      eventEnabled: 0
      eventName: 
    - sprite: {fileID: 21300960, guid: ba0e1814e5f9b41468cea3f82f8efc66, type: 3}
      time: 0.1
      eventEnabled: 0
      eventName: 
    - sprite: {fileID: 21300962, guid: ba0e1814e5f9b41468cea3f82f8efc66, type: 3}
      time: 0.1
      eventEnabled: 0
      eventName: 
    - sprite: {fileID: 21300964, guid: ba0e1814e5f9b41468cea3f82f8efc66, type: 3}
      time: 0.1
      eventEnabled: 0
      eventName: 
    - sprite: {fileID: 21300912, guid: ba0e1814e5f9b41468cea3f82f8efc66, type: 3}
      time: 0.1
      eventEnabled: 0
      eventName: 
    - sprite: {fileID: 21300914, guid: ba0e1814e5f9b41468cea3f82f8efc66, type: 3}
      time: 0.1
      eventEnabled: 0
      eventName: 
    - sprite: {fileID: 21300916, guid: ba0e1814e5f9b41468cea3f82f8efc66, type: 3}
      time: 0.1
      eventEnabled: 0
      eventName: 
    - sprite: {fileID: 21300918, guid: ba0e1814e5f9b41468cea3f82f8efc66, type: 3}
      time: 0.1
      eventEnabled: 0
      eventName: 
    - sprite: {fileID: 21300920, guid: ba0e1814e5f9b41468cea3f82f8efc66, type: 3}
      time: 0.1
      eventEnabled: 0
      eventName: 
    - sprite: {fileID: 21300922, guid: ba0e1814e5f9b41468cea3f82f8efc66, type: 3}
      time: 0.1
      eventEnabled: 0
      eventName: 
    - sprite: {fileID: 21300924, guid: ba0e1814e5f9b41468cea3f82f8efc66, type: 3}
      time: 0.1
      eventEnabled: 0
      eventName: 
    - sprite: {fileID: 21300926, guid: ba0e1814e5f9b41468cea3f82f8efc66, type: 3}
      time: 0.1
      eventEnabled: 0
      eventName: 
    - sprite: {fileID: 21300928, guid: ba0e1814e5f9b41468cea3f82f8efc66, type: 3}
      time: 0.1
      eventEnabled: 0
      eventName: 
    - sprite: {fileID: 21300930, guid: ba0e1814e5f9b41468cea3f82f8efc66, type: 3}
      time: 0.1
      eventEnabled: 0
      eventName: 
    - sprite: {fileID: 21300932, guid: ba0e1814e5f9b41468cea3f82f8efc66, type: 3}
      time: 0.1
      eventEnabled: 0
      eventName: 
    - sprite: {fileID: 21300934, guid: ba0e1814e5f9b41468cea3f82f8efc66, type: 3}
      time: 0.1
      eventEnabled: 0
      eventName: 
    - sprite: {fileID: 21300936, guid: ba0e1814e5f9b41468cea3f82f8efc66, type: 3}
      time: 0.1
      eventEnabled: 0
      eventName: 
    - sprite: {fileID: 21300938, guid: ba0e1814e5f9b41468cea3f82f8efc66, type: 3}
      time: 0.1
      eventEnabled: 0
      eventName: 
    - sprite: {fileID: 21300940, guid: ba0e1814e5f9b41468cea3f82f8efc66, type: 3}
      time: 0.1
      eventEnabled: 0
      eventName: 
    - sprite: {fileID: 21300942, guid: ba0e1814e5f9b41468cea3f82f8efc66, type: 3}
      time: 0.1
      eventEnabled: 0
      eventName: 
    - sprite: {fileID: 21300944, guid: ba0e1814e5f9b41468cea3f82f8efc66, type: 3}
      time: 0.1
      eventEnabled: 0
      eventName: 
    - sprite: {fileID: 21300946, guid: ba0e1814e5f9b41468cea3f82f8efc66, type: 3}
      time: 0.1
      eventEnabled: 0
      eventName: 
    - sprite: {fileID: 21300948, guid: ba0e1814e5f9b41468cea3f82f8efc66, type: 3}
      time: 0.1
      eventEnabled: 0
      eventName: 
    - sprite: {fileID: 21300950, guid: ba0e1814e5f9b41468cea3f82f8efc66, type: 3}
      time: 0.1
      eventEnabled: 0
      eventName: 
    - sprite: {fileID: 21300952, guid: ba0e1814e5f9b41468cea3f82f8efc66, type: 3}
      time: 0.1
      eventEnabled: 0
      eventName: 
    - sprite: {fileID: 21300954, guid: ba0e1814e5f9b41468cea3f82f8efc66, type: 3}
      time: 0.1
      eventEnabled: 0
      eventName: 
    - sprite: {fileID: 21300956, guid: ba0e1814e5f9b41468cea3f82f8efc66, type: 3}
      time: 0.1
      eventEnabled: 0
      eventName: 
    - sprite: {fileID: 21300958, guid: ba0e1814e5f9b41468cea3f82f8efc66, type: 3}
      time: 0.1
      eventEnabled: 0
      eventName: 
    - sprite: {fileID: 21300960, guid: ba0e1814e5f9b41468cea3f82f8efc66, type: 3}
      time: 0.1
      eventEnabled: 0
      eventName: 
    - sprite: {fileID: 21300962, guid: ba0e1814e5f9b41468cea3f82f8efc66, type: 3}
      time: 0.1
      eventEnabled: 0
      eventName: 
    - sprite: {fileID: 21300964, guid: ba0e1814e5f9b41468cea3f82f8efc66, type: 3}
      time: 0.1
      eventEnabled: 0
      eventName: 
    name: Green_OnWin_Two
    selectedIndex: 11
    newFramesTime: 0.1
  - speedRatio: 1
    loop: 2
    frameToLoop: 11
    frameDatas:
    - sprite: {fileID: 21300888, guid: ba0e1814e5f9b41468cea3f82f8efc66, type: 3}
      time: 0.1
      eventEnabled: 0
      eventName: 
    - sprite: {fileID: 21300890, guid: ba0e1814e5f9b41468cea3f82f8efc66, type: 3}
      time: 0.1
      eventEnabled: 0
      eventName: 
    - sprite: {fileID: 21300892, guid: ba0e1814e5f9b41468cea3f82f8efc66, type: 3}
      time: 0.1
      eventEnabled: 0
      eventName: 
    - sprite: {fileID: 21300894, guid: ba0e1814e5f9b41468cea3f82f8efc66, type: 3}
      time: 0.1
      eventEnabled: 0
      eventName: 
    - sprite: {fileID: 21300896, guid: ba0e1814e5f9b41468cea3f82f8efc66, type: 3}
      time: 0.1
      eventEnabled: 0
      eventName: 
    - sprite: {fileID: 21300876, guid: ba0e1814e5f9b41468cea3f82f8efc66, type: 3}
      time: 0.1
      eventEnabled: 0
      eventName: 
    - sprite: {fileID: 21300878, guid: ba0e1814e5f9b41468cea3f82f8efc66, type: 3}
      time: 0.1
      eventEnabled: 0
      eventName: 
    - sprite: {fileID: 21300880, guid: ba0e1814e5f9b41468cea3f82f8efc66, type: 3}
      time: 0.1
      eventEnabled: 0
      eventName: 
    - sprite: {fileID: 21300882, guid: ba0e1814e5f9b41468cea3f82f8efc66, type: 3}
      time: 0.1
      eventEnabled: 0
      eventName: 
    - sprite: {fileID: 21300884, guid: ba0e1814e5f9b41468cea3f82f8efc66, type: 3}
      time: 0.1
      eventEnabled: 0
      eventName: 
    - sprite: {fileID: 21300886, guid: ba0e1814e5f9b41468cea3f82f8efc66, type: 3}
      time: 0.1
      eventEnabled: 0
      eventName: 
    - sprite: {fileID: 21300834, guid: ba0e1814e5f9b41468cea3f82f8efc66, type: 3}
      time: 0.1
      eventEnabled: 0
      eventName: 
    - sprite: {fileID: 21300836, guid: ba0e1814e5f9b41468cea3f82f8efc66, type: 3}
      time: 0.1
      eventEnabled: 0
      eventName: 
    - sprite: {fileID: 21300838, guid: ba0e1814e5f9b41468cea3f82f8efc66, type: 3}
      time: 0.1
      eventEnabled: 0
      eventName: 
    - sprite: {fileID: 21300840, guid: ba0e1814e5f9b41468cea3f82f8efc66, type: 3}
      time: 0.1
      eventEnabled: 0
      eventName: 
    - sprite: {fileID: 21300842, guid: ba0e1814e5f9b41468cea3f82f8efc66, type: 3}
      time: 0.1
      eventEnabled: 0
      eventName: 
    - sprite: {fileID: 21300844, guid: ba0e1814e5f9b41468cea3f82f8efc66, type: 3}
      time: 0.1
      eventEnabled: 0
      eventName: 
    - sprite: {fileID: 21300846, guid: ba0e1814e5f9b41468cea3f82f8efc66, type: 3}
      time: 0.1
      eventEnabled: 0
      eventName: 
    - sprite: {fileID: 21300848, guid: ba0e1814e5f9b41468cea3f82f8efc66, type: 3}
      time: 0.1
      eventEnabled: 0
      eventName: 
    - sprite: {fileID: 21300850, guid: ba0e1814e5f9b41468cea3f82f8efc66, type: 3}
      time: 0.1
      eventEnabled: 0
      eventName: 
    - sprite: {fileID: 21300852, guid: ba0e1814e5f9b41468cea3f82f8efc66, type: 3}
      time: 0.1
      eventEnabled: 0
      eventName: 
    - sprite: {fileID: 21300854, guid: ba0e1814e5f9b41468cea3f82f8efc66, type: 3}
      time: 0.1
      eventEnabled: 0
      eventName: 
    - sprite: {fileID: 21300856, guid: ba0e1814e5f9b41468cea3f82f8efc66, type: 3}
      time: 0.1
      eventEnabled: 0
      eventName: 
    - sprite: {fileID: 21300858, guid: ba0e1814e5f9b41468cea3f82f8efc66, type: 3}
      time: 0.1
      eventEnabled: 0
      eventName: 
    - sprite: {fileID: 21300860, guid: ba0e1814e5f9b41468cea3f82f8efc66, type: 3}
      time: 0.1
      eventEnabled: 0
      eventName: 
    - sprite: {fileID: 21300862, guid: ba0e1814e5f9b41468cea3f82f8efc66, type: 3}
      time: 0.1
      eventEnabled: 0
      eventName: 
    - sprite: {fileID: 21300864, guid: ba0e1814e5f9b41468cea3f82f8efc66, type: 3}
      time: 0.1
      eventEnabled: 0
      eventName: 
    - sprite: {fileID: 21300866, guid: ba0e1814e5f9b41468cea3f82f8efc66, type: 3}
      time: 0.1
      eventEnabled: 0
      eventName: 
    - sprite: {fileID: 21300868, guid: ba0e1814e5f9b41468cea3f82f8efc66, type: 3}
      time: 0.1
      eventEnabled: 0
      eventName: 
    - sprite: {fileID: 21300870, guid: ba0e1814e5f9b41468cea3f82f8efc66, type: 3}
      time: 0.1
      eventEnabled: 0
      eventName: 
    - sprite: {fileID: 21300872, guid: ba0e1814e5f9b41468cea3f82f8efc66, type: 3}
      time: 0.1
      eventEnabled: 0
      eventName: 
    - sprite: {fileID: 21300874, guid: ba0e1814e5f9b41468cea3f82f8efc66, type: 3}
      time: 0.1
      eventEnabled: 0
      eventName: 
    - sprite: {fileID: 21300876, guid: ba0e1814e5f9b41468cea3f82f8efc66, type: 3}
      time: 0.1
      eventEnabled: 0
      eventName: 
    - sprite: {fileID: 21300878, guid: ba0e1814e5f9b41468cea3f82f8efc66, type: 3}
      time: 0.1
      eventEnabled: 0
      eventName: 
    - sprite: {fileID: 21300880, guid: ba0e1814e5f9b41468cea3f82f8efc66, type: 3}
      time: 0.1
      eventEnabled: 0
      eventName: 
    - sprite: {fileID: 21300882, guid: ba0e1814e5f9b41468cea3f82f8efc66, type: 3}
      time: 0.1
      eventEnabled: 0
      eventName: 
    - sprite: {fileID: 21300884, guid: ba0e1814e5f9b41468cea3f82f8efc66, type: 3}
      time: 0.1
      eventEnabled: 0
      eventName: 
    - sprite: {fileID: 21300886, guid: ba0e1814e5f9b41468cea3f82f8efc66, type: 3}
      time: 0.1
      eventEnabled: 0
      eventName: 
    name: Green_OnWin_Three
    selectedIndex: 0
    newFramesTime: 0.1
