%YAML 1.1
%TAG !u! tag:unity3d.com,2011:
--- !u!114 &11400000
MonoBehaviour:
  m_ObjectHideFlags: 0
  m_PrefabParentObject: {fileID: 0}
  m_PrefabInternal: {fileID: 0}
  m_GameObject: {fileID: 0}
  m_Enabled: 1
  m_EditorHideFlags: 0
  m_Script: {fileID: 11500000, guid: 34404cb99b59bb543805a55e3c469d61, type: 3}
  m_Name: Red
  m_EditorClassIdentifier: 
  editorConfirmations: 1
  animations:
  - speedRatio: 1
    loop: 0
    frameToLoop: 0
    frameDatas:
    - sprite: {fileID: 21300672, guid: 27a67724b0f024b22a2364521d0a944f, type: 3}
      time: 0.1
      eventEnabled: 0
      eventName: 
    - sprite: {fileID: 21300674, guid: 27a67724b0f024b22a2364521d0a944f, type: 3}
      time: 0.1
      eventEnabled: 0
      eventName: 
    - sprite: {fileID: 21300676, guid: 27a67724b0f024b22a2364521d0a944f, type: 3}
      time: 0.1
      eventEnabled: 0
      eventName: 
    name: Red_OnInit
    selectedIndex: 2
    newFramesTime: 0.1
  - speedRatio: 1
    loop: 0
    frameToLoop: 0
    frameDatas:
    - sprite: {fileID: 21300678, guid: 27a67724b0f024b22a2364521d0a944f, type: 3}
      time: 0.1
      eventEnabled: 0
      eventName: 
    - sprite: {fileID: 21300680, guid: 27a67724b0f024b22a2364521d0a944f, type: 3}
      time: 0.1
      eventEnabled: 0
      eventName: 
    - sprite: {fileID: 21300682, guid: 27a67724b0f024b22a2364521d0a944f, type: 3}
      time: 0.1
      eventEnabled: 0
      eventName: 
    - sprite: {fileID: 21300684, guid: 27a67724b0f024b22a2364521d0a944f, type: 3}
      time: 0.1
      eventEnabled: 0
      eventName: 
    - sprite: {fileID: 21300686, guid: 27a67724b0f024b22a2364521d0a944f, type: 3}
      time: 0.1
      eventEnabled: 0
      eventName: 
    - sprite: {fileID: 21300688, guid: 27a67724b0f024b22a2364521d0a944f, type: 3}
      time: 0.1
      eventEnabled: 0
      eventName: 
    - sprite: {fileID: 21300690, guid: 27a67724b0f024b22a2364521d0a944f, type: 3}
      time: 0.1
      eventEnabled: 0
      eventName: 
    - sprite: {fileID: 21300692, guid: 27a67724b0f024b22a2364521d0a944f, type: 3}
      time: 0.1
      eventEnabled: 0
      eventName: 
    - sprite: {fileID: 21300694, guid: 27a67724b0f024b22a2364521d0a944f, type: 3}
      time: 0.1
      eventEnabled: 0
      eventName: 
    - sprite: {fileID: 21300696, guid: 27a67724b0f024b22a2364521d0a944f, type: 3}
      time: 0.1
      eventEnabled: 0
      eventName: 
    - sprite: {fileID: 21300698, guid: 27a67724b0f024b22a2364521d0a944f, type: 3}
      time: 0.1
      eventEnabled: 0
      eventName: 
    - sprite: {fileID: 21300700, guid: 27a67724b0f024b22a2364521d0a944f, type: 3}
      time: 0.1
      eventEnabled: 0
      eventName: 
    - sprite: {fileID: 21300702, guid: 27a67724b0f024b22a2364521d0a944f, type: 3}
      time: 0.1
      eventEnabled: 0
      eventName: 
    - sprite: {fileID: 21300704, guid: 27a67724b0f024b22a2364521d0a944f, type: 3}
      time: 0.1
      eventEnabled: 0
      eventName: 
    - sprite: {fileID: 21300706, guid: 27a67724b0f024b22a2364521d0a944f, type: 3}
      time: 0.1
      eventEnabled: 0
      eventName: 
    name: Red_OnSpawn
    selectedIndex: 2
    newFramesTime: 0.1
  - speedRatio: 1
    loop: 1
    frameToLoop: 0
    frameDatas:
    - sprite: {fileID: 21300100, guid: 27a67724b0f024b22a2364521d0a944f, type: 3}
      time: 0.1
      eventEnabled: 0
      eventName: 
    - sprite: {fileID: 21300102, guid: 27a67724b0f024b22a2364521d0a944f, type: 3}
      time: 0.1
      eventEnabled: 0
      eventName: 
    - sprite: {fileID: 21300104, guid: 27a67724b0f024b22a2364521d0a944f, type: 3}
      time: 0.1
      eventEnabled: 0
      eventName: 
    - sprite: {fileID: 21300106, guid: 27a67724b0f024b22a2364521d0a944f, type: 3}
      time: 0.1
      eventEnabled: 0
      eventName: 
    name: Red_OnIdleAction_None
    selectedIndex: 3
    newFramesTime: 0.1
  - speedRatio: 1
    loop: 1
    frameToLoop: 0
    frameDatas:
    - sprite: {fileID: 21300218, guid: 27a67724b0f024b22a2364521d0a944f, type: 3}
      time: 0.1
      eventEnabled: 0
      eventName: 
    - sprite: {fileID: 21300220, guid: 27a67724b0f024b22a2364521d0a944f, type: 3}
      time: 0.1
      eventEnabled: 0
      eventName: 
    - sprite: {fileID: 21300222, guid: 27a67724b0f024b22a2364521d0a944f, type: 3}
      time: 0.1
      eventEnabled: 0
      eventName: 
    - sprite: {fileID: 21300224, guid: 27a67724b0f024b22a2364521d0a944f, type: 3}
      time: 0.1
      eventEnabled: 0
      eventName: 
    - sprite: {fileID: 21300226, guid: 27a67724b0f024b22a2364521d0a944f, type: 3}
      time: 0.1
      eventEnabled: 0
      eventName: 
    - sprite: {fileID: 21300228, guid: 27a67724b0f024b22a2364521d0a944f, type: 3}
      time: 0.1
      eventEnabled: 0
      eventName: 
    - sprite: {fileID: 21300230, guid: 27a67724b0f024b22a2364521d0a944f, type: 3}
      time: 0.1
      eventEnabled: 0
      eventName: 
    - sprite: {fileID: 21300232, guid: 27a67724b0f024b22a2364521d0a944f, type: 3}
      time: 0.1
      eventEnabled: 0
      eventName: 
    name: Red_OnPressed
    selectedIndex: 7
    newFramesTime: 0.1
  - speedRatio: 1
    loop: 0
    frameToLoop: 0
    frameDatas:
    - sprite: {fileID: 21300314, guid: 27a67724b0f024b22a2364521d0a944f, type: 3}
      time: 0.1
      eventEnabled: 0
      eventName: 
    - sprite: {fileID: 21300316, guid: 27a67724b0f024b22a2364521d0a944f, type: 3}
      time: 0.1
      eventEnabled: 0
      eventName: 
    - sprite: {fileID: 21300318, guid: 27a67724b0f024b22a2364521d0a944f, type: 3}
      time: 0.1
      eventEnabled: 0
      eventName: 
    - sprite: {fileID: 21300320, guid: 27a67724b0f024b22a2364521d0a944f, type: 3}
      time: 0.1
      eventEnabled: 0
      eventName: 
    - sprite: {fileID: 21300322, guid: 27a67724b0f024b22a2364521d0a944f, type: 3}
      time: 0.1
      eventEnabled: 0
      eventName: 
    - sprite: {fileID: 21300324, guid: 27a67724b0f024b22a2364521d0a944f, type: 3}
      time: 0.1
      eventEnabled: 0
      eventName: 
    - sprite: {fileID: 21300326, guid: 27a67724b0f024b22a2364521d0a944f, type: 3}
      time: 0.1
      eventEnabled: 0
      eventName: 
    - sprite: {fileID: 21300328, guid: 27a67724b0f024b22a2364521d0a944f, type: 3}
      time: 0.1
      eventEnabled: 0
      eventName: 
    - sprite: {fileID: 21300330, guid: 27a67724b0f024b22a2364521d0a944f, type: 3}
      time: 0.1
      eventEnabled: 0
      eventName: 
    - sprite: {fileID: 21300332, guid: 27a67724b0f024b22a2364521d0a944f, type: 3}
      time: 0.1
      eventEnabled: 0
      eventName: 
    - sprite: {fileID: 21300334, guid: 27a67724b0f024b22a2364521d0a944f, type: 3}
      time: 0.1
      eventEnabled: 0
      eventName: 
    - sprite: {fileID: 21300336, guid: 27a67724b0f024b22a2364521d0a944f, type: 3}
      time: 0.1
      eventEnabled: 0
      eventName: 
    - sprite: {fileID: 21300338, guid: 27a67724b0f024b22a2364521d0a944f, type: 3}
      time: 0.1
      eventEnabled: 0
      eventName: 
    name: Red_OnCombine
    selectedIndex: 12
    newFramesTime: 0.1
  - speedRatio: 1
    loop: 1
    frameToLoop: 0
    frameDatas:
    - sprite: {fileID: 21300576, guid: 27a67724b0f024b22a2364521d0a944f, type: 3}
      time: 0.1
      eventEnabled: 0
      eventName: 
    - sprite: {fileID: 21300578, guid: 27a67724b0f024b22a2364521d0a944f, type: 3}
      time: 0.1
      eventEnabled: 0
      eventName: 
    - sprite: {fileID: 21300580, guid: 27a67724b0f024b22a2364521d0a944f, type: 3}
      time: 0.1
      eventEnabled: 0
      eventName: 
    name: Red_OnSlide_Up
    selectedIndex: 2
    newFramesTime: 0.1
  - speedRatio: 1
    loop: 0
    frameToLoop: 0
    frameDatas:
    - sprite: {fileID: 21300582, guid: 27a67724b0f024b22a2364521d0a944f, type: 3}
      time: 0.1
      eventEnabled: 0
      eventName: 
    - sprite: {fileID: 21300584, guid: 27a67724b0f024b22a2364521d0a944f, type: 3}
      time: 0.1
      eventEnabled: 0
      eventName: 
    - sprite: {fileID: 21300586, guid: 27a67724b0f024b22a2364521d0a944f, type: 3}
      time: 0.1
      eventEnabled: 0
      eventName: 
    name: Red_OnSlide_Right
    selectedIndex: 2
    newFramesTime: 0.1
  - speedRatio: 1
    loop: 1
    frameToLoop: 0
    frameDatas:
    - sprite: {fileID: 21300594, guid: 27a67724b0f024b22a2364521d0a944f, type: 3}
      time: 0.1
      eventEnabled: 0
      eventName: 
    - sprite: {fileID: 21300596, guid: 27a67724b0f024b22a2364521d0a944f, type: 3}
      time: 0.1
      eventEnabled: 0
      eventName: 
    - sprite: {fileID: 21300598, guid: 27a67724b0f024b22a2364521d0a944f, type: 3}
      time: 0.1
      eventEnabled: 0
      eventName: 
    name: Red_OnSlide_Down
    selectedIndex: 2
    newFramesTime: 0.1
  - speedRatio: 1
    loop: 1
    frameToLoop: 0
    frameDatas:
    - sprite: {fileID: 21300588, guid: 27a67724b0f024b22a2364521d0a944f, type: 3}
      time: 0.1
      eventEnabled: 0
      eventName: 
    - sprite: {fileID: 21300590, guid: 27a67724b0f024b22a2364521d0a944f, type: 3}
      time: 0.1
      eventEnabled: 0
      eventName: 
    - sprite: {fileID: 21300592, guid: 27a67724b0f024b22a2364521d0a944f, type: 3}
      time: 0.1
      eventEnabled: 0
      eventName: 
    name: Red_OnSlide_Left
    selectedIndex: 2
    newFramesTime: 0.1
  - speedRatio: 1
    loop: 0
    frameToLoop: 0
    frameDatas:
    - sprite: {fileID: 21300100, guid: 27a67724b0f024b22a2364521d0a944f, type: 3}
      time: 0.1
      eventEnabled: 0
      eventName: 
    - sprite: {fileID: 21300102, guid: 27a67724b0f024b22a2364521d0a944f, type: 3}
      time: 0.1
      eventEnabled: 0
      eventName: 
    - sprite: {fileID: 21300104, guid: 27a67724b0f024b22a2364521d0a944f, type: 3}
      time: 0.1
      eventEnabled: 0
      eventName: 
    - sprite: {fileID: 21300106, guid: 27a67724b0f024b22a2364521d0a944f, type: 3}
      time: 0.1
      eventEnabled: 0
      eventName: 
    name: Red_OnStart_None
    selectedIndex: 3
    newFramesTime: 0.1
  - speedRatio: 1
    loop: 0
    frameToLoop: 0
    frameDatas:
    - sprite: {fileID: 21301278, guid: ba0e1814e5f9b41468cea3f82f8efc66, type: 3}
      time: 0.1
      eventEnabled: 0
      eventName: 
    - sprite: {fileID: 21301280, guid: ba0e1814e5f9b41468cea3f82f8efc66, type: 3}
      time: 0.1
      eventEnabled: 0
      eventName: 
    - sprite: {fileID: 21301282, guid: ba0e1814e5f9b41468cea3f82f8efc66, type: 3}
      time: 0.1
      eventEnabled: 0
      eventName: 
    - sprite: {fileID: 21301284, guid: ba0e1814e5f9b41468cea3f82f8efc66, type: 3}
      time: 0.1
      eventEnabled: 0
      eventName: 
    - sprite: {fileID: 21301286, guid: ba0e1814e5f9b41468cea3f82f8efc66, type: 3}
      time: 0.1
      eventEnabled: 0
      eventName: 
    - sprite: {fileID: 21301288, guid: ba0e1814e5f9b41468cea3f82f8efc66, type: 3}
      time: 0.1
      eventEnabled: 0
      eventName: 
    - sprite: {fileID: 21301290, guid: ba0e1814e5f9b41468cea3f82f8efc66, type: 3}
      time: 0.1
      eventEnabled: 0
      eventName: 
    - sprite: {fileID: 21301292, guid: ba0e1814e5f9b41468cea3f82f8efc66, type: 3}
      time: 0.1
      eventEnabled: 0
      eventName: 
    - sprite: {fileID: 21301294, guid: ba0e1814e5f9b41468cea3f82f8efc66, type: 3}
      time: 0.1
      eventEnabled: 0
      eventName: 
    - sprite: {fileID: 21301296, guid: ba0e1814e5f9b41468cea3f82f8efc66, type: 3}
      time: 0.1
      eventEnabled: 0
      eventName: 
    - sprite: {fileID: 21301298, guid: ba0e1814e5f9b41468cea3f82f8efc66, type: 3}
      time: 0.1
      eventEnabled: 0
      eventName: 
    - sprite: {fileID: 21301300, guid: ba0e1814e5f9b41468cea3f82f8efc66, type: 3}
      time: 0.1
      eventEnabled: 0
      eventName: 
    name: Red_OnStart_One
    selectedIndex: 4
    newFramesTime: 0.1
  - speedRatio: 1
    loop: 0
    frameToLoop: 0
    frameDatas:
    - sprite: {fileID: 21301200, guid: ba0e1814e5f9b41468cea3f82f8efc66, type: 3}
      time: 0.1
      eventEnabled: 0
      eventName: 
    - sprite: {fileID: 21301202, guid: ba0e1814e5f9b41468cea3f82f8efc66, type: 3}
      time: 0.1
      eventEnabled: 0
      eventName: 
    - sprite: {fileID: 21301204, guid: ba0e1814e5f9b41468cea3f82f8efc66, type: 3}
      time: 0.1
      eventEnabled: 0
      eventName: 
    - sprite: {fileID: 21301206, guid: ba0e1814e5f9b41468cea3f82f8efc66, type: 3}
      time: 0.1
      eventEnabled: 0
      eventName: 
    - sprite: {fileID: 21301208, guid: ba0e1814e5f9b41468cea3f82f8efc66, type: 3}
      time: 0.1
      eventEnabled: 0
      eventName: 
    - sprite: {fileID: 21301210, guid: ba0e1814e5f9b41468cea3f82f8efc66, type: 3}
      time: 0.1
      eventEnabled: 0
      eventName: 
    - sprite: {fileID: 21301212, guid: ba0e1814e5f9b41468cea3f82f8efc66, type: 3}
      time: 0.1
      eventEnabled: 0
      eventName: 
    - sprite: {fileID: 21301214, guid: ba0e1814e5f9b41468cea3f82f8efc66, type: 3}
      time: 0.1
      eventEnabled: 0
      eventName: 
    - sprite: {fileID: 21301216, guid: ba0e1814e5f9b41468cea3f82f8efc66, type: 3}
      time: 0.1
      eventEnabled: 0
      eventName: 
    - sprite: {fileID: 21301218, guid: ba0e1814e5f9b41468cea3f82f8efc66, type: 3}
      time: 0.1
      eventEnabled: 0
      eventName: 
    - sprite: {fileID: 21301220, guid: ba0e1814e5f9b41468cea3f82f8efc66, type: 3}
      time: 0.1
      eventEnabled: 0
      eventName: 
    - sprite: {fileID: 21301222, guid: ba0e1814e5f9b41468cea3f82f8efc66, type: 3}
      time: 0.1
      eventEnabled: 0
      eventName: 
    name: Red_OnStart_Two
    selectedIndex: 11
    newFramesTime: 0.1
  - speedRatio: 1
    loop: 0
    frameToLoop: 0
    frameDatas:
    - sprite: {fileID: 21301122, guid: ba0e1814e5f9b41468cea3f82f8efc66, type: 3}
      time: 0.1
      eventEnabled: 0
      eventName: 
    - sprite: {fileID: 21301124, guid: ba0e1814e5f9b41468cea3f82f8efc66, type: 3}
      time: 0.1
      eventEnabled: 0
      eventName: 
    - sprite: {fileID: 21301126, guid: ba0e1814e5f9b41468cea3f82f8efc66, type: 3}
      time: 0.1
      eventEnabled: 0
      eventName: 
    - sprite: {fileID: 21301128, guid: ba0e1814e5f9b41468cea3f82f8efc66, type: 3}
      time: 0.1
      eventEnabled: 0
      eventName: 
    - sprite: {fileID: 21301130, guid: ba0e1814e5f9b41468cea3f82f8efc66, type: 3}
      time: 0.1
      eventEnabled: 0
      eventName: 
    - sprite: {fileID: 21301132, guid: ba0e1814e5f9b41468cea3f82f8efc66, type: 3}
      time: 0.1
      eventEnabled: 0
      eventName: 
    - sprite: {fileID: 21301134, guid: ba0e1814e5f9b41468cea3f82f8efc66, type: 3}
      time: 0.1
      eventEnabled: 0
      eventName: 
    - sprite: {fileID: 21301136, guid: ba0e1814e5f9b41468cea3f82f8efc66, type: 3}
      time: 0.1
      eventEnabled: 0
      eventName: 
    - sprite: {fileID: 21301138, guid: ba0e1814e5f9b41468cea3f82f8efc66, type: 3}
      time: 0.1
      eventEnabled: 0
      eventName: 
    - sprite: {fileID: 21301140, guid: ba0e1814e5f9b41468cea3f82f8efc66, type: 3}
      time: 0.1
      eventEnabled: 0
      eventName: 
    - sprite: {fileID: 21301142, guid: ba0e1814e5f9b41468cea3f82f8efc66, type: 3}
      time: 0.1
      eventEnabled: 0
      eventName: 
    - sprite: {fileID: 21301144, guid: ba0e1814e5f9b41468cea3f82f8efc66, type: 3}
      time: 0.1
      eventEnabled: 0
      eventName: 
    name: Red_OnStart_Three
    selectedIndex: 11
    newFramesTime: 0.1
  - speedRatio: 1
    loop: 1
    frameToLoop: 0
    frameDatas:
    - sprite: {fileID: 21300072, guid: 27a67724b0f024b22a2364521d0a944f, type: 3}
      time: 0.1
      eventEnabled: 0
      eventName: 
    name: Red_OnIdle_None
    selectedIndex: 0
    newFramesTime: 0.1
  - speedRatio: 1
    loop: 0
    frameToLoop: 0
    frameDatas:
    - sprite: {fileID: 21301300, guid: ba0e1814e5f9b41468cea3f82f8efc66, type: 3}
      time: 0.1
      eventEnabled: 0
      eventName: 
    name: Red_OnIdle_One
    selectedIndex: 0
    newFramesTime: 0.1
  - speedRatio: 1
    loop: 0
    frameToLoop: 0
    frameDatas:
    - sprite: {fileID: 21301222, guid: ba0e1814e5f9b41468cea3f82f8efc66, type: 3}
      time: 0.1
      eventEnabled: 0
      eventName: 
    name: Red_OnIdle_Two
    selectedIndex: 0
    newFramesTime: 0.1
  - speedRatio: 1
    loop: 0
    frameToLoop: 0
    frameDatas:
    - sprite: {fileID: 21301144, guid: ba0e1814e5f9b41468cea3f82f8efc66, type: 3}
      time: 0.1
      eventEnabled: 0
      eventName: 
    name: Red_OnIdle_Three
    selectedIndex: 0
    newFramesTime: 0.1
  - speedRatio: 1
    loop: 1
    frameToLoop: 0
    frameDatas:
    - sprite: {fileID: 21301624, guid: ba0e1814e5f9b41468cea3f82f8efc66, type: 3}
      time: 0.1
      eventEnabled: 0
      eventName: 
    - sprite: {fileID: 21301626, guid: ba0e1814e5f9b41468cea3f82f8efc66, type: 3}
      time: 0.1
      eventEnabled: 0
      eventName: 
    - sprite: {fileID: 21301628, guid: ba0e1814e5f9b41468cea3f82f8efc66, type: 3}
      time: 0.1
      eventEnabled: 0
      eventName: 
    - sprite: {fileID: 21301630, guid: ba0e1814e5f9b41468cea3f82f8efc66, type: 3}
      time: 0.1
      eventEnabled: 0
      eventName: 
    - sprite: {fileID: 21301632, guid: ba0e1814e5f9b41468cea3f82f8efc66, type: 3}
      time: 0.1
      eventEnabled: 0
      eventName: 
    - sprite: {fileID: 21301634, guid: ba0e1814e5f9b41468cea3f82f8efc66, type: 3}
      time: 0.1
      eventEnabled: 0
      eventName: 
    - sprite: {fileID: 21301636, guid: ba0e1814e5f9b41468cea3f82f8efc66, type: 3}
      time: 0.1
      eventEnabled: 0
      eventName: 
    - sprite: {fileID: 21301638, guid: ba0e1814e5f9b41468cea3f82f8efc66, type: 3}
      time: 0.1
      eventEnabled: 0
      eventName: 
    - sprite: {fileID: 21301640, guid: ba0e1814e5f9b41468cea3f82f8efc66, type: 3}
      time: 0.1
      eventEnabled: 0
      eventName: 
    - sprite: {fileID: 21301642, guid: ba0e1814e5f9b41468cea3f82f8efc66, type: 3}
      time: 0.1
      eventEnabled: 0
      eventName: 
    - sprite: {fileID: 21301644, guid: ba0e1814e5f9b41468cea3f82f8efc66, type: 3}
      time: 0.1
      eventEnabled: 0
      eventName: 
    - sprite: {fileID: 21301646, guid: ba0e1814e5f9b41468cea3f82f8efc66, type: 3}
      time: 0.1
      eventEnabled: 0
      eventName: 
    - sprite: {fileID: 21301648, guid: ba0e1814e5f9b41468cea3f82f8efc66, type: 3}
      time: 0.1
      eventEnabled: 0
      eventName: 
    - sprite: {fileID: 21301650, guid: ba0e1814e5f9b41468cea3f82f8efc66, type: 3}
      time: 0.1
      eventEnabled: 0
      eventName: 
    - sprite: {fileID: 21301652, guid: ba0e1814e5f9b41468cea3f82f8efc66, type: 3}
      time: 0.1
      eventEnabled: 0
      eventName: 
    - sprite: {fileID: 21301654, guid: ba0e1814e5f9b41468cea3f82f8efc66, type: 3}
      time: 0.1
      eventEnabled: 0
      eventName: 
    - sprite: {fileID: 21301656, guid: ba0e1814e5f9b41468cea3f82f8efc66, type: 3}
      time: 0.1
      eventEnabled: 0
      eventName: 
    - sprite: {fileID: 21301658, guid: ba0e1814e5f9b41468cea3f82f8efc66, type: 3}
      time: 0.1
      eventEnabled: 0
      eventName: 
    - sprite: {fileID: 21301660, guid: ba0e1814e5f9b41468cea3f82f8efc66, type: 3}
      time: 0.1
      eventEnabled: 0
      eventName: 
    - sprite: {fileID: 21301662, guid: ba0e1814e5f9b41468cea3f82f8efc66, type: 3}
      time: 0.1
      eventEnabled: 0
      eventName: 
    - sprite: {fileID: 21301664, guid: ba0e1814e5f9b41468cea3f82f8efc66, type: 3}
      time: 0.1
      eventEnabled: 0
      eventName: 
    - sprite: {fileID: 21301666, guid: ba0e1814e5f9b41468cea3f82f8efc66, type: 3}
      time: 0.1
      eventEnabled: 0
      eventName: 
    name: Red_OnWin_None
    selectedIndex: 21
    newFramesTime: 0.1
  - speedRatio: 1
    loop: 2
    frameToLoop: 10
    frameDatas:
    - sprite: {fileID: 21301278, guid: ba0e1814e5f9b41468cea3f82f8efc66, type: 3}
      time: 0.1
      eventEnabled: 0
      eventName: 
    - sprite: {fileID: 21301280, guid: ba0e1814e5f9b41468cea3f82f8efc66, type: 3}
      time: 0.1
      eventEnabled: 0
      eventName: 
    - sprite: {fileID: 21301282, guid: ba0e1814e5f9b41468cea3f82f8efc66, type: 3}
      time: 0.1
      eventEnabled: 0
      eventName: 
    - sprite: {fileID: 21301284, guid: ba0e1814e5f9b41468cea3f82f8efc66, type: 3}
      time: 0.1
      eventEnabled: 0
      eventName: 
    - sprite: {fileID: 21301266, guid: ba0e1814e5f9b41468cea3f82f8efc66, type: 3}
      time: 0.1
      eventEnabled: 0
      eventName: 
    - sprite: {fileID: 21301268, guid: ba0e1814e5f9b41468cea3f82f8efc66, type: 3}
      time: 0.1
      eventEnabled: 0
      eventName: 
    - sprite: {fileID: 21301270, guid: ba0e1814e5f9b41468cea3f82f8efc66, type: 3}
      time: 0.1
      eventEnabled: 0
      eventName: 
    - sprite: {fileID: 21301272, guid: ba0e1814e5f9b41468cea3f82f8efc66, type: 3}
      time: 0.1
      eventEnabled: 0
      eventName: 
    - sprite: {fileID: 21301274, guid: ba0e1814e5f9b41468cea3f82f8efc66, type: 3}
      time: 0.1
      eventEnabled: 0
      eventName: 
    - sprite: {fileID: 21301276, guid: ba0e1814e5f9b41468cea3f82f8efc66, type: 3}
      time: 0.1
      eventEnabled: 0
      eventName: 
    - sprite: {fileID: 21301224, guid: ba0e1814e5f9b41468cea3f82f8efc66, type: 3}
      time: 0.1
      eventEnabled: 0
      eventName: 
    - sprite: {fileID: 21301226, guid: ba0e1814e5f9b41468cea3f82f8efc66, type: 3}
      time: 0.1
      eventEnabled: 0
      eventName: 
    - sprite: {fileID: 21301228, guid: ba0e1814e5f9b41468cea3f82f8efc66, type: 3}
      time: 0.1
      eventEnabled: 0
      eventName: 
    - sprite: {fileID: 21301230, guid: ba0e1814e5f9b41468cea3f82f8efc66, type: 3}
      time: 0.1
      eventEnabled: 0
      eventName: 
    - sprite: {fileID: 21301232, guid: ba0e1814e5f9b41468cea3f82f8efc66, type: 3}
      time: 0.1
      eventEnabled: 0
      eventName: 
    - sprite: {fileID: 21301234, guid: ba0e1814e5f9b41468cea3f82f8efc66, type: 3}
      time: 0.1
      eventEnabled: 0
      eventName: 
    - sprite: {fileID: 21301236, guid: ba0e1814e5f9b41468cea3f82f8efc66, type: 3}
      time: 0.1
      eventEnabled: 0
      eventName: 
    - sprite: {fileID: 21301238, guid: ba0e1814e5f9b41468cea3f82f8efc66, type: 3}
      time: 0.1
      eventEnabled: 0
      eventName: 
    - sprite: {fileID: 21301240, guid: ba0e1814e5f9b41468cea3f82f8efc66, type: 3}
      time: 0.1
      eventEnabled: 0
      eventName: 
    - sprite: {fileID: 21301242, guid: ba0e1814e5f9b41468cea3f82f8efc66, type: 3}
      time: 0.1
      eventEnabled: 0
      eventName: 
    - sprite: {fileID: 21301244, guid: ba0e1814e5f9b41468cea3f82f8efc66, type: 3}
      time: 0.1
      eventEnabled: 0
      eventName: 
    - sprite: {fileID: 21301246, guid: ba0e1814e5f9b41468cea3f82f8efc66, type: 3}
      time: 0.1
      eventEnabled: 0
      eventName: 
    - sprite: {fileID: 21301248, guid: ba0e1814e5f9b41468cea3f82f8efc66, type: 3}
      time: 0.1
      eventEnabled: 0
      eventName: 
    - sprite: {fileID: 21301250, guid: ba0e1814e5f9b41468cea3f82f8efc66, type: 3}
      time: 0.1
      eventEnabled: 0
      eventName: 
    - sprite: {fileID: 21301252, guid: ba0e1814e5f9b41468cea3f82f8efc66, type: 3}
      time: 0.1
      eventEnabled: 0
      eventName: 
    - sprite: {fileID: 21301254, guid: ba0e1814e5f9b41468cea3f82f8efc66, type: 3}
      time: 0.1
      eventEnabled: 0
      eventName: 
    - sprite: {fileID: 21301256, guid: ba0e1814e5f9b41468cea3f82f8efc66, type: 3}
      time: 0.1
      eventEnabled: 0
      eventName: 
    - sprite: {fileID: 21301258, guid: ba0e1814e5f9b41468cea3f82f8efc66, type: 3}
      time: 0.1
      eventEnabled: 0
      eventName: 
    - sprite: {fileID: 21301260, guid: ba0e1814e5f9b41468cea3f82f8efc66, type: 3}
      time: 0.1
      eventEnabled: 0
      eventName: 
    - sprite: {fileID: 21301262, guid: ba0e1814e5f9b41468cea3f82f8efc66, type: 3}
      time: 0.1
      eventEnabled: 0
      eventName: 
    - sprite: {fileID: 21301264, guid: ba0e1814e5f9b41468cea3f82f8efc66, type: 3}
      time: 0.1
      eventEnabled: 0
      eventName: 
    - sprite: {fileID: 21301266, guid: ba0e1814e5f9b41468cea3f82f8efc66, type: 3}
      time: 0.1
      eventEnabled: 0
      eventName: 
    - sprite: {fileID: 21301268, guid: ba0e1814e5f9b41468cea3f82f8efc66, type: 3}
      time: 0.1
      eventEnabled: 0
      eventName: 
    - sprite: {fileID: 21301270, guid: ba0e1814e5f9b41468cea3f82f8efc66, type: 3}
      time: 0.1
      eventEnabled: 0
      eventName: 
    - sprite: {fileID: 21301272, guid: ba0e1814e5f9b41468cea3f82f8efc66, type: 3}
      time: 0.1
      eventEnabled: 0
      eventName: 
    - sprite: {fileID: 21301274, guid: ba0e1814e5f9b41468cea3f82f8efc66, type: 3}
      time: 0.1
      eventEnabled: 0
      eventName: 
    - sprite: {fileID: 21301276, guid: ba0e1814e5f9b41468cea3f82f8efc66, type: 3}
      time: 0.1
      eventEnabled: 0
      eventName: 
    name: Red_OnWin_One
    selectedIndex: 36
    newFramesTime: 0.1
  - speedRatio: 1
    loop: 2
    frameToLoop: 10
    frameDatas:
    - sprite: {fileID: 21301200, guid: ba0e1814e5f9b41468cea3f82f8efc66, type: 3}
      time: 0.1
      eventEnabled: 0
      eventName: 
    - sprite: {fileID: 21301202, guid: ba0e1814e5f9b41468cea3f82f8efc66, type: 3}
      time: 0.1
      eventEnabled: 0
      eventName: 
    - sprite: {fileID: 21301204, guid: ba0e1814e5f9b41468cea3f82f8efc66, type: 3}
      time: 0.1
      eventEnabled: 0
      eventName: 
    - sprite: {fileID: 21301206, guid: ba0e1814e5f9b41468cea3f82f8efc66, type: 3}
      time: 0.1
      eventEnabled: 0
      eventName: 
    - sprite: {fileID: 21301188, guid: ba0e1814e5f9b41468cea3f82f8efc66, type: 3}
      time: 0.1
      eventEnabled: 0
      eventName: 
    - sprite: {fileID: 21301190, guid: ba0e1814e5f9b41468cea3f82f8efc66, type: 3}
      time: 0.1
      eventEnabled: 0
      eventName: 
    - sprite: {fileID: 21301192, guid: ba0e1814e5f9b41468cea3f82f8efc66, type: 3}
      time: 0.1
      eventEnabled: 0
      eventName: 
    - sprite: {fileID: 21301194, guid: ba0e1814e5f9b41468cea3f82f8efc66, type: 3}
      time: 0.1
      eventEnabled: 0
      eventName: 
    - sprite: {fileID: 21301196, guid: ba0e1814e5f9b41468cea3f82f8efc66, type: 3}
      time: 0.1
      eventEnabled: 0
      eventName: 
    - sprite: {fileID: 21301198, guid: ba0e1814e5f9b41468cea3f82f8efc66, type: 3}
      time: 0.1
      eventEnabled: 0
      eventName: 
    - sprite: {fileID: 21301146, guid: ba0e1814e5f9b41468cea3f82f8efc66, type: 3}
      time: 0.1
      eventEnabled: 0
      eventName: 
    - sprite: {fileID: 21301148, guid: ba0e1814e5f9b41468cea3f82f8efc66, type: 3}
      time: 0.1
      eventEnabled: 0
      eventName: 
    - sprite: {fileID: 21301150, guid: ba0e1814e5f9b41468cea3f82f8efc66, type: 3}
      time: 0.1
      eventEnabled: 0
      eventName: 
    - sprite: {fileID: 21301152, guid: ba0e1814e5f9b41468cea3f82f8efc66, type: 3}
      time: 0.1
      eventEnabled: 0
      eventName: 
    - sprite: {fileID: 21301154, guid: ba0e1814e5f9b41468cea3f82f8efc66, type: 3}
      time: 0.1
      eventEnabled: 0
      eventName: 
    - sprite: {fileID: 21301156, guid: ba0e1814e5f9b41468cea3f82f8efc66, type: 3}
      time: 0.1
      eventEnabled: 0
      eventName: 
    - sprite: {fileID: 21301158, guid: ba0e1814e5f9b41468cea3f82f8efc66, type: 3}
      time: 0.1
      eventEnabled: 0
      eventName: 
    - sprite: {fileID: 21301160, guid: ba0e1814e5f9b41468cea3f82f8efc66, type: 3}
      time: 0.1
      eventEnabled: 0
      eventName: 
    - sprite: {fileID: 21301162, guid: ba0e1814e5f9b41468cea3f82f8efc66, type: 3}
      time: 0.1
      eventEnabled: 0
      eventName: 
    - sprite: {fileID: 21301164, guid: ba0e1814e5f9b41468cea3f82f8efc66, type: 3}
      time: 0.1
      eventEnabled: 0
      eventName: 
    - sprite: {fileID: 21301166, guid: ba0e1814e5f9b41468cea3f82f8efc66, type: 3}
      time: 0.1
      eventEnabled: 0
      eventName: 
    - sprite: {fileID: 21301168, guid: ba0e1814e5f9b41468cea3f82f8efc66, type: 3}
      time: 0.1
      eventEnabled: 0
      eventName: 
    - sprite: {fileID: 21301170, guid: ba0e1814e5f9b41468cea3f82f8efc66, type: 3}
      time: 0.1
      eventEnabled: 0
      eventName: 
    - sprite: {fileID: 21301172, guid: ba0e1814e5f9b41468cea3f82f8efc66, type: 3}
      time: 0.1
      eventEnabled: 0
      eventName: 
    - sprite: {fileID: 21301174, guid: ba0e1814e5f9b41468cea3f82f8efc66, type: 3}
      time: 0.1
      eventEnabled: 0
      eventName: 
    - sprite: {fileID: 21301176, guid: ba0e1814e5f9b41468cea3f82f8efc66, type: 3}
      time: 0.1
      eventEnabled: 0
      eventName: 
    - sprite: {fileID: 21301178, guid: ba0e1814e5f9b41468cea3f82f8efc66, type: 3}
      time: 0.1
      eventEnabled: 0
      eventName: 
    - sprite: {fileID: 21301180, guid: ba0e1814e5f9b41468cea3f82f8efc66, type: 3}
      time: 0.1
      eventEnabled: 0
      eventName: 
    - sprite: {fileID: 21301182, guid: ba0e1814e5f9b41468cea3f82f8efc66, type: 3}
      time: 0.1
      eventEnabled: 0
      eventName: 
    - sprite: {fileID: 21301184, guid: ba0e1814e5f9b41468cea3f82f8efc66, type: 3}
      time: 0.1
      eventEnabled: 0
      eventName: 
    - sprite: {fileID: 21301186, guid: ba0e1814e5f9b41468cea3f82f8efc66, type: 3}
      time: 0.1
      eventEnabled: 0
      eventName: 
    - sprite: {fileID: 21301188, guid: ba0e1814e5f9b41468cea3f82f8efc66, type: 3}
      time: 0.1
      eventEnabled: 0
      eventName: 
    - sprite: {fileID: 21301190, guid: ba0e1814e5f9b41468cea3f82f8efc66, type: 3}
      time: 0.1
      eventEnabled: 0
      eventName: 
    - sprite: {fileID: 21301192, guid: ba0e1814e5f9b41468cea3f82f8efc66, type: 3}
      time: 0.1
      eventEnabled: 0
      eventName: 
    - sprite: {fileID: 21301194, guid: ba0e1814e5f9b41468cea3f82f8efc66, type: 3}
      time: 0.1
      eventEnabled: 0
      eventName: 
    - sprite: {fileID: 21301196, guid: ba0e1814e5f9b41468cea3f82f8efc66, type: 3}
      time: 0.1
      eventEnabled: 0
      eventName: 
    - sprite: {fileID: 21301198, guid: ba0e1814e5f9b41468cea3f82f8efc66, type: 3}
      time: 0.1
      eventEnabled: 0
      eventName: 
    name: Red_OnWin_Two
    selectedIndex: 36
    newFramesTime: 0.1
  - speedRatio: 1
    loop: 2
    frameToLoop: 10
    frameDatas:
    - sprite: {fileID: 21301122, guid: ba0e1814e5f9b41468cea3f82f8efc66, type: 3}
      time: 0.1
      eventEnabled: 0
      eventName: 
    - sprite: {fileID: 21301124, guid: ba0e1814e5f9b41468cea3f82f8efc66, type: 3}
      time: 0.1
      eventEnabled: 0
      eventName: 
    - sprite: {fileID: 21301126, guid: ba0e1814e5f9b41468cea3f82f8efc66, type: 3}
      time: 0.1
      eventEnabled: 0
      eventName: 
    - sprite: {fileID: 21301128, guid: ba0e1814e5f9b41468cea3f82f8efc66, type: 3}
      time: 0.1
      eventEnabled: 0
      eventName: 
    - sprite: {fileID: 21301110, guid: ba0e1814e5f9b41468cea3f82f8efc66, type: 3}
      time: 0.1
      eventEnabled: 0
      eventName: 
    - sprite: {fileID: 21301112, guid: ba0e1814e5f9b41468cea3f82f8efc66, type: 3}
      time: 0.1
      eventEnabled: 0
      eventName: 
    - sprite: {fileID: 21301114, guid: ba0e1814e5f9b41468cea3f82f8efc66, type: 3}
      time: 0.1
      eventEnabled: 0
      eventName: 
    - sprite: {fileID: 21301116, guid: ba0e1814e5f9b41468cea3f82f8efc66, type: 3}
      time: 0.1
      eventEnabled: 0
      eventName: 
    - sprite: {fileID: 21301118, guid: ba0e1814e5f9b41468cea3f82f8efc66, type: 3}
      time: 0.1
      eventEnabled: 0
      eventName: 
    - sprite: {fileID: 21301120, guid: ba0e1814e5f9b41468cea3f82f8efc66, type: 3}
      time: 0.1
      eventEnabled: 0
      eventName: 
    - sprite: {fileID: 21301068, guid: ba0e1814e5f9b41468cea3f82f8efc66, type: 3}
      time: 0.1
      eventEnabled: 0
      eventName: 
    - sprite: {fileID: 21301070, guid: ba0e1814e5f9b41468cea3f82f8efc66, type: 3}
      time: 0.1
      eventEnabled: 0
      eventName: 
    - sprite: {fileID: 21301072, guid: ba0e1814e5f9b41468cea3f82f8efc66, type: 3}
      time: 0.1
      eventEnabled: 0
      eventName: 
    - sprite: {fileID: 21301074, guid: ba0e1814e5f9b41468cea3f82f8efc66, type: 3}
      time: 0.1
      eventEnabled: 0
      eventName: 
    - sprite: {fileID: 21301076, guid: ba0e1814e5f9b41468cea3f82f8efc66, type: 3}
      time: 0.1
      eventEnabled: 0
      eventName: 
    - sprite: {fileID: 21301078, guid: ba0e1814e5f9b41468cea3f82f8efc66, type: 3}
      time: 0.1
      eventEnabled: 0
      eventName: 
    - sprite: {fileID: 21301080, guid: ba0e1814e5f9b41468cea3f82f8efc66, type: 3}
      time: 0.1
      eventEnabled: 0
      eventName: 
    - sprite: {fileID: 21301082, guid: ba0e1814e5f9b41468cea3f82f8efc66, type: 3}
      time: 0.1
      eventEnabled: 0
      eventName: 
    - sprite: {fileID: 21301084, guid: ba0e1814e5f9b41468cea3f82f8efc66, type: 3}
      time: 0.1
      eventEnabled: 0
      eventName: 
    - sprite: {fileID: 21301086, guid: ba0e1814e5f9b41468cea3f82f8efc66, type: 3}
      time: 0.1
      eventEnabled: 0
      eventName: 
    - sprite: {fileID: 21301088, guid: ba0e1814e5f9b41468cea3f82f8efc66, type: 3}
      time: 0.1
      eventEnabled: 0
      eventName: 
    - sprite: {fileID: 21301090, guid: ba0e1814e5f9b41468cea3f82f8efc66, type: 3}
      time: 0.1
      eventEnabled: 0
      eventName: 
    - sprite: {fileID: 21301092, guid: ba0e1814e5f9b41468cea3f82f8efc66, type: 3}
      time: 0.1
      eventEnabled: 0
      eventName: 
    - sprite: {fileID: 21301094, guid: ba0e1814e5f9b41468cea3f82f8efc66, type: 3}
      time: 0.1
      eventEnabled: 0
      eventName: 
    - sprite: {fileID: 21301096, guid: ba0e1814e5f9b41468cea3f82f8efc66, type: 3}
      time: 0.1
      eventEnabled: 0
      eventName: 
    - sprite: {fileID: 21301098, guid: ba0e1814e5f9b41468cea3f82f8efc66, type: 3}
      time: 0.1
      eventEnabled: 0
      eventName: 
    - sprite: {fileID: 21301100, guid: ba0e1814e5f9b41468cea3f82f8efc66, type: 3}
      time: 0.1
      eventEnabled: 0
      eventName: 
    - sprite: {fileID: 21301102, guid: ba0e1814e5f9b41468cea3f82f8efc66, type: 3}
      time: 0.1
      eventEnabled: 0
      eventName: 
    - sprite: {fileID: 21301104, guid: ba0e1814e5f9b41468cea3f82f8efc66, type: 3}
      time: 0.1
      eventEnabled: 0
      eventName: 
    - sprite: {fileID: 21301106, guid: ba0e1814e5f9b41468cea3f82f8efc66, type: 3}
      time: 0.1
      eventEnabled: 0
      eventName: 
    - sprite: {fileID: 21301108, guid: ba0e1814e5f9b41468cea3f82f8efc66, type: 3}
      time: 0.1
      eventEnabled: 0
      eventName: 
    - sprite: {fileID: 21301110, guid: ba0e1814e5f9b41468cea3f82f8efc66, type: 3}
      time: 0.1
      eventEnabled: 0
      eventName: 
    - sprite: {fileID: 21301112, guid: ba0e1814e5f9b41468cea3f82f8efc66, type: 3}
      time: 0.1
      eventEnabled: 0
      eventName: 
    - sprite: {fileID: 21301114, guid: ba0e1814e5f9b41468cea3f82f8efc66, type: 3}
      time: 0.1
      eventEnabled: 0
      eventName: 
    - sprite: {fileID: 21301116, guid: ba0e1814e5f9b41468cea3f82f8efc66, type: 3}
      time: 0.1
      eventEnabled: 0
      eventName: 
    - sprite: {fileID: 21301118, guid: ba0e1814e5f9b41468cea3f82f8efc66, type: 3}
      time: 0.1
      eventEnabled: 0
      eventName: 
    - sprite: {fileID: 21301120, guid: ba0e1814e5f9b41468cea3f82f8efc66, type: 3}
      time: 0.1
      eventEnabled: 0
      eventName: 
    name: Red_OnWin_Three
    selectedIndex: 0
    newFramesTime: 0.1
