%YAML 1.1
%TAG !u! tag:unity3d.com,2011:
--- !u!114 &11400000
MonoBehaviour:
  m_ObjectHideFlags: 0
  m_PrefabParentObject: {fileID: 0}
  m_PrefabInternal: {fileID: 0}
  m_GameObject: {fileID: 0}
  m_Enabled: 1
  m_EditorHideFlags: 0
  m_Script: {fileID: 11500000, guid: cb312f82406ff451f83f2c263768ed4e, type: 3}
  m_Name: Green_Pressed_Coin
  m_EditorClassIdentifier: 
  groupName: GREEN_Pressed_Coin
  sounds:
  - name: Pressed_Coin0
    clip: {fileID: 8300000, guid: 47bf5f093ea528544ac65e2d3410893b, type: 3}
    volume: 10
  - name: Pressed_Coin1
    clip: {fileID: 8300000, guid: 80a6d88ea90f1a049b90fd77a0eb5a20, type: 3}
    volume: 10
